Place,Name,BirthYear,WeightClassKg,BodyweightKg,Country,Bench1Kg,Bench2Kg,Bench3Kg,Best3BenchKg,TotalKg,Event,Equipment,Division,Sex
1,Irmeli Vaulakorpi,1954,48,47.6,FIN,55,60,62.5,62.5,62.5,B,Single-ply,Masters 1,F
2,Hannelore Kovács,1956,48,45.7,HUN,47.5,52.5,-55,52.5,52.5,B,Single-ply,Masters 1,F
1,Andrea Krampf,1958,56,53.9,AUT,82.5,85,87.5,87.5,87.5,B,Single-ply,Masters 1,F
2,Eija Kettunen,1960,56,55.4,FIN,72.5,77.5,82.5,82.5,82.5,B,Single-ply,Masters 1,F
3,Dina Nowka,1956,56,55,GER,70,72.5,75,75,75,B,Single-ply,Masters 1,F
1,Daniele Taret,1958,60,59.1,FRA,90,-97.5,-97.5,90,90,B,Single-ply,Masters 1,F
2,Bett Eschelbacher,1959,60,59,GER,82.5,-87.5,,82.5,82.5,B,Single-ply,Masters 1,F
3,Susanne Cunat,1959,60,59.1,AUT,75,80,-85,80,80,B,Single-ply,Masters 1,F
1,Ursula Häuser,1960,67.5,65.7,GER,87.5,92.5,-97.5,92.5,92.5,B,Single-ply,Masters 1,F
2,Helena Malassu,1958,67.5,63.5,FIN,60,67.5,-72.5,67.5,67.5,B,Single-ply,Masters 1,F
3,Zsuzsa Németh,1955,67.5,61.8,HUN,50,55,-62.5,55,55,B,Single-ply,Masters 1,F
1,Hana Takáčová,1954,75,75,CZE,100,108,110,110,110,B,Single-ply,Masters 1,F
2,Katalin Rohrmann,1953,75,68.7,HUN,85,-90,90,90,90,B,Single-ply,Masters 1,F
3,Evelyne Herbin,1956,75,69.6,FRA,85,90,-92.5,90,90,B,Single-ply,Masters 1,F
1,Eva Speth,1954,82.5,82.3,GER,110,-112.5,-112.5,110,110,B,Single-ply,Masters 1,F
2,Sirpa Kokkonen,1958,82.5,76.8,FIN,60,70,-80,70,70,B,Single-ply,Masters 1,F
1,Simone Grunske,1959,90+,90.5,GER,85,90,-95,90,90,B,Single-ply,Masters 1,F
1,Françoise Heligon,1943,48,46.1,FRA,52.5,57.5,-62.5,57.5,57.5,B,Single-ply,Masters 2,F
2,Seija Turunen,1947,48,47.6,FIN,50,-55,-60,50,50,B,Single-ply,Masters 2,F
DQ,Eva Orenicová,1951,48,47.6,SVK,-60,-60,-65,,,B,Single-ply,Masters 2,F
1,Dagmar Wang,1948,52,51.9,AUT,77.5,-80,,77.5,77.5,B,Single-ply,Masters 2,F
1,Eila Kumpuniemi,1942,56,55,FIN,60,67.5,70,70,70,B,Single-ply,Masters 2,F
2,Dagmar McSwain,1944,56,55.5,AUT,57.5,-60,-60,57.5,57.5,B,Single-ply,Masters 2,F
3,Carmen Gernemont,1948,56,52.1,FRA,55,-60,-60,55,55,B,Single-ply,Masters 2,F
1,Adina Hyková,1943,60,57.4,CZE,77.5,-82.5,-82.5,77.5,77.5,B,Single-ply,Masters 2,F
2,Christel Schubert,1945,60,58,GER,47.5,50,52.5,52.5,52.5,B,Single-ply,Masters 2,F
1,Anita Thimm,1950,67.5,62.5,GER,77.5,80,-82.5,80,80,B,Single-ply,Masters 2,F
2,Marie Chant Brail,1950,67.5,64.4,FRA,65,70,-72.5,70,70,B,Single-ply,Masters 2,F
1,Rosemarie Beer,1945,75,74.6,AUT,100,105,-107.5,105,105,B,Single-ply,Masters 2,F
2,Erika Wimmer,1940,75,68.4,GER,-60,60,62.5,62.5,62.5,B,Single-ply,Masters 2,F
3,Anna Gruber,1948,75,72.3,HUN,-55,-57.5,57.5,57.5,57.5,B,Single-ply,Masters 2,F
4,Valentyna Chala,1949,75,70.7,UKR,45,-50,-50,45,45,B,Single-ply,Masters 2,F
1,Roswit Pittermann,1946,90,83.6,GER,105,110,-112.5,110,110,B,Single-ply,Masters 2,F
2,Þórdís Garðarsdóttir,1944,90,83.1,ICE,77.5,-85,-85,77.5,77.5,B,Single-ply,Masters 2,F
DQ,Roswita Kendziora,1951,90+,93.1,GER,-50,-50,-50,,,B,Single-ply,Masters 2,F
1,Josef Fenzl,1960,52,51.5,AUT,55,60,-62.5,60,60,B,Single-ply,Masters 1,M
1,Alexandr Moisseev,1954,56,55.2,BLR,95,-100,-100,95,95,B,Single-ply,Masters 1,M
2,Manfred Gilgert,1959,56,54.5,GER,75,-80,80,80,80,B,Single-ply,Masters 1,M
1,Guy Ceselvio,1960,67.5,66.8,FRA,155,160,-162.5,160,160,B,Single-ply,Masters 1,M
2,Juheni Kihlstrom,1959,67.5,66.9,SWE,152.5,155,-162.5,155,155,B,Single-ply,Masters 1,M
3,Anton Mihok,1957,67.5,65.4,SVK,140,150,152.5,152.5,152.5,B,Single-ply,Masters 1,M
4,Raimo Kyheröinen,1952,67.5,67.2,FIN,-150,-150,150,150,150,B,Single-ply,Masters 1,M
5,Rudolf Böhm,1952,67.5,65.9,CZE,147.5,-152.5,-155,147.5,147.5,B,Single-ply,Masters 1,M
6,Peter Muigg,1958,67.5,67.3,AUT,-142.5,142.5,-147.5,142.5,142.5,B,Single-ply,Masters 1,M
7,Janos Beczö,1957,67.5,65.7,HUN,125,-132.5,135,135,135,B,Single-ply,Masters 1,M
8,Genadiy Vasylyev,1952,67.5,65,UKR,85,90,-95,90,90,B,Single-ply,Masters 1,M
1,Gerhard Leierzopf,1961,75,69.6,AUT,155,-160,160,160,160,B,Single-ply,Masters 1,M
2,Ilkka Kekkonen,1957,75,74.3,FIN,155,160,-170,160,160,B,Single-ply,Masters 1,M
3,Antanas Gricius,1956,75,74.6,LTH,152.5,160,-167.5,160,160,B,Single-ply,Masters 1,M
4,Alain Riviere,1960,75,73.1,FRA,-155,155,157.5,157.5,157.5,B,Single-ply,Masters 1,M
5,Kari Remes,1960,75,74.5,FIN,155,-157.5,-160,155,155,B,Single-ply,Masters 1,M
6,Lars Midtboe,1956,75,73.7,NOR,135,140,145,145,145,B,Single-ply,Masters 1,M
7,Istvan Inotai,1954,75,74.8,HUN,120,130,137.5,137.5,137.5,B,Single-ply,Masters 1,M
8,Vytautas Siurkus,1960,75,73.7,LTH,-135,135,-140,135,135,B,Single-ply,Masters 1,M
9,Birger Sundstøl,1954,75,70.9,NOR,112.5,-122.5,-127.5,112.5,112.5,B,Single-ply,Masters 1,M
DQ,Karl Weyringer,1951,75,74.2,AUT,-147.5,-147.5,-147.5,,,B,Single-ply,Masters 1,M
1,Didier Compain,1959,82.5,81.3,FRA,-195.5,200,207.5,207.5,207.5,B,Single-ply,Masters 1,M
2,Vladimir Volkov,1959,82.5,81.8,RUS,-195.5,195.5,-207.5,195.5,195.5,B,Single-ply,Masters 1,M
3,Werner Fackler,1959,82.5,81.2,GER,180,185,187.5,187.5,187.5,B,Single-ply,Masters 1,M
4,Volodymy Synenkyy,1960,82.5,81.8,UKR,-175,177.5,-187.5,177.5,177.5,B,Single-ply,Masters 1,M
1,Pacal Pares,1958,90,87.4,FRA,190,195,-197.5,195,195,B,Single-ply,Masters 1,M
2,Lothar Pritzl,1959,90,89.3,GER,185,192.5,-197.5,192.5,192.5,B,Single-ply,Masters 1,M
3,Albert Pal,1961,90,89.5,HUN,180,-190,190,190,190,B,Single-ply,Masters 1,M
4,Lars Jansson,1956,90,87.4,SWE,172.5,177.5,182.5,182.5,182.5,B,Single-ply,Masters 1,M
5,Harri Hagfors,1961,90,89.6,FIN,172.5,177.5,-185,177.5,177.5,B,Single-ply,Masters 1,M
6,Vytaut Ardavicius,1956,90,87.8,LTH,-170,170,-175,170,170,B,Single-ply,Masters 1,M
DQ,Marek Markwat,1952,90,86.6,POL,-202.5,-202.5,-202.5,,,B,Single-ply,Masters 1,M
1,Acacio DaSilva,1960,100,98,FRA,200,210,-217.5,210,210,B,Single-ply,Masters 1,M
2,Frank Hischke,1961,100,96,GER,-200,200,-215,200,200,B,Single-ply,Masters 1,M
3,Otto Dalos,1954,100,97.6,HUN,170,-177.5,177.5,177.5,177.5,B,Single-ply,Masters 1,M
4,Per Berndorf,1960,100,90.4,DEN,162.5,170,-177.5,170,170,B,Single-ply,Masters 1,M
5,Anatol Bondarenko,1956,100,90.5,LTH,165,-175,-175,165,165,B,Single-ply,Masters 1,M
6,Bob Baxter,1959,100,90.6,GBR,150,-157.5,-160,150,150,B,Single-ply,Masters 1,M
7,Janos Pokornyi,1952,100,98.5,HUN,-150,150,-160,150,150,B,Single-ply,Masters 1,M
1,Fred Jahnke,1957,110,108.7,GER,220,-230,235,235,235,B,Single-ply,Masters 1,M
2,Alexander Koblov,1958,110,109.7,RUS,210,222.5,232.5,232.5,232.5,B,Single-ply,Masters 1,M
3,Jerzy Furmanek,1952,110,100.9,POL,-230,230,-240,230,230,B,Single-ply,Masters 1,M
4,Janos Fartel,1960,110,107,HUN,210,-215,-217.5,210,210,B,Single-ply,Masters 1,M
5,Kauko Savonen,1957,110,108.7,FIN,195,-207.5,-207.5,195,195,B,Single-ply,Masters 1,M
6,Attila Sándor,1952,110,109.7,HUN,170,-177.5,-180,170,170,B,Single-ply,Masters 1,M
1,Wieslaw Kruk,1958,125,111.7,POL,260,-280,-280,260,260,B,Single-ply,Masters 1,M
2,Vladimi Simanenko,1960,125,124.2,RUS,225,230,-240,230,230,B,Single-ply,Masters 1,M
3,István Eszenyi,1957,125,114,HUN,-220,220,-230,220,220,B,Single-ply,Masters 1,M
4,Massimo Papini,1957,125,113.5,ITA,215,-220,-225,215,215,B,Single-ply,Masters 1,M
5,Kari Vilppola,1955,125,117.3,FIN,202.5,210,-217.5,210,210,B,Single-ply,Masters 1,M
6,Henryk Romanek,1959,125,121,POL,205,210,-220,210,210,B,Single-ply,Masters 1,M
7,Anton Speth,1955,125,122.3,GER,-200,200,-202.5,200,200,B,Single-ply,Masters 1,M
8,Joszef Horvath,1956,125,110.2,HUN,-180,180,,180,180,B,Single-ply,Masters 1,M
1,Bohumil Váňa,1951,125+,127,CZE,230,-240,-240,230,230,B,Single-ply,Masters 1,M
2,Antonín Šota,1952,125+,125.7,CZE,205,210,-230,210,210,B,Single-ply,Masters 1,M
DQ,Jan Cuber,1959,125+,154.1,POL,-200,-200,-200,,,B,Single-ply,Masters 1,M
1,Rainer Geese,1943,60,59.4,GER,105,107.5,112.5,112.5,112.5,B,Single-ply,Masters 2,M
2,Joachim Lietzau,1950,60,59.2,GER,97.5,-105,110,110,110,B,Single-ply,Masters 2,M
3,Bent Hansen,1941,60,59.5,DEN,72.5,80,-85,80,80,B,Single-ply,Masters 2,M
1,Jozsef Kapor,1951,67.5,67.2,HUN,135,142.5,-145,142.5,142.5,B,Single-ply,Masters 2,M
2,Jaques Bette,1950,67.5,67.5,FRA,135,137.5,140,140,140,B,Single-ply,Masters 2,M
3,Juha Inkinen,1946,67.5,66.1,FIN,-132.5,135,137.5,137.5,137.5,B,Single-ply,Masters 2,M
4,Oleg Furssev,1946,67.5,66.9,BLR,125,130,132.5,132.5,132.5,B,Single-ply,Masters 2,M
5,Rola Rothenberger,1947,67.5,66.4,GER,-110,110,-115,110,110,B,Single-ply,Masters 2,M
DQ,Börje Eriksson,1942,67.5,66.4,SWE,-130,-130,-140,,,B,Single-ply,Masters 2,M
1,Allan Eriksson,1946,75,72.5,SWE,-155,155,160,160,160,B,Single-ply,Masters 2,M
2,Rainer Thomas,1950,75,74.5,GER,-155,155,-160,155,155,B,Single-ply,Masters 2,M
3,Stan Macrow,1949,75,72.9,GBR,135,140,142.5,142.5,142.5,B,Single-ply,Masters 2,M
1,Taisto Paanan,1949,82.5,81.2,FIN,165,177.5,-180,177.5,177.5,B,Single-ply,Masters 2,M
2,Louis Escolano,1945,82.5,81.3,FRA,165,-175,-175,165,165,B,Single-ply,Masters 2,M
3,Attila Jaloweczki,1947,82.5,80.9,HUN,145,152.5,157.5,157.5,157.5,B,Single-ply,Masters 2,M
4,Attila Siklosi,1942,82.5,81.3,HUN,-130,135,-140,135,135,B,Single-ply,Masters 2,M
5,Pavol Schauer,1951,82.5,76.8,CZE,117.5,122.5,125,125,125,B,Single-ply,Masters 2,M
6,Kari Mattila,1945,82.5,81.9,SWE,115,-125,125,125,125,B,Single-ply,Masters 2,M
DQ,István Verebi,1951,82.5,81.3,HUN,-127.5,-132.5,-137.5,,,B,Single-ply,Masters 2,M
1,Vladimir Halavach,1950,90,88.3,BLR,170,175,-182.5,175,175,B,Single-ply,Masters 2,M
2,Usko Paananen,1948,90,89.8,SWE,165,175,-182.5,175,175,B,Single-ply,Masters 2,M
3,Hans-Jurgen Pietsch,1948,90,84.2,GER,170,-175,-175,170,170,B,Single-ply,Masters 2,M
DQ,Ketil Hodne,1947,90,86.5,NOR,-125,-125,-135,,,B,Single-ply,Masters 2,M
DQ,Ferenc Marozsi,1947,90,88.2,HUN,-150,-150,-150,,,B,Single-ply,Masters 2,M
1,Mihaly Hajdu,1950,100,98.9,HUN,-182.5,182.5,-190,182.5,182.5,B,Single-ply,Masters 2,M
2,Jiří Horník,1948,100,96.3,CZE,145,-155,155,155,155,B,Single-ply,Masters 2,M
3,Uwe Bienert,1951,100,91.6,GER,120,,,120,120,B,Single-ply,Masters 2,M
1,György Lovasz,1950,110,109.4,HUN,210,-215,215,215,215,B,Single-ply,Masters 2,M
2,Wojciec Grabowski,1951,110,101.6,POL,190,-200,-200,190,190,B,Single-ply,Masters 2,M
3,Wolfgang Heer,1945,110,105.5,GER,-165,170,-177.5,170,170,B,Single-ply,Masters 2,M
4,Ken Circhmore,1946,110,106.6,GBR,147.5,155,160,160,160,B,Single-ply,Masters 2,M
5,Istvan Standinger,1950,110,101,HUN,135,140,-145,140,140,B,Single-ply,Masters 2,M
1,Mick King,1949,125,119.7,GBR,190,200,-205,200,200,B,Single-ply,Masters 2,M
2,Edward Plewa,1951,125,111.4,POL,185,192.5,-195,192.5,192.5,B,Single-ply,Masters 2,M
3,Kurt Nygård,1946,125,111.8,FIN,-175,175,180,180,180,B,Single-ply,Masters 2,M
4,Alexandr Kolář,1943,125,114.5,CZE,165,-170,-177.5,165,165,B,Single-ply,Masters 2,M
5,Georg Boström,1947,125,121.4,SWE,125,,,125,125,B,Single-ply,Masters 2,M
DQ,Karl Weber,1950,125,111.8,GER,-180,-180,-180,,,B,Single-ply,Masters 2,M
1,Karl-Heinz Voscul,1949,125+,141.8,GER,185,-192.5,192.5,192.5,192.5,B,Single-ply,Masters 2,M
2,Erkki Tuomikoski,1947,125+,127.5,FIN,-175,175,185,185,185,B,Single-ply,Masters 2,M
3,Ludvik Björnsson,1944,125+,132.1,ICE,165,-172.5,-172.5,165,165,B,Single-ply,Masters 2,M
1,Alexander Diepold,1937,60,59.8,GER,85,92.5,-100,92.5,92.5,B,Single-ply,Masters 3,M
1,Louis Volnin,1936,75,74,FRA,125,-130,-130,125,125,B,Single-ply,Masters 3,M
1,Olavi Kallio,1933,82.5,81.7,FIN,145,150,-152.5,150,150,B,Single-ply,Masters 3,M
2,Jose-Lui Martinez,1939,82.5,81.3,ESP,-145,-147.5,147.5,147.5,147.5,B,Single-ply,Masters 3,M
3,Josef Wimmer,1936,82.5,79.2,GER,110,115,117.5,117.5,117.5,B,Single-ply,Masters 3,M
DQ,Peter Sosna,1939,82.5,77.5,GER,-100,-100,-100,,,B,Single-ply,Masters 3,M
1,Knut Kampe,1940,90,89,NOR,157.5,162.5,167.5,167.5,167.5,B,Single-ply,Masters 3,M
2,Gunther Wittkowski,1940,90,88.8,GER,150,-160,-162.5,150,150,B,Single-ply,Masters 3,M
3,Jiri Hofirek,1941,90,89.7,CZE,115,120,-130,120,120,B,Single-ply,Masters 3,M
1,Roland Schubert,1940,100,98.1,GER,190,195,-197.5,195,195,B,Single-ply,Masters 3,M
2,Lauri Rantanen,1940,100,97.2,FIN,-150,-150,150,150,150,B,Single-ply,Masters 3,M
3,Scott Barrie,1938,100,91.5,GBR,100,107.5,110,110,110,B,Single-ply,Masters 3,M
4,Wolfgang Kolditz,1940,100,90.6,GER,95,102.5,-107.5,102.5,102.5,B,Single-ply,Masters 3,M
1,Egil Engebretsen,1939,110,106.6,NOR,175,-185,-185,175,175,B,Single-ply,Masters 3,M
2,László Kasza,1941,110,106.1,HUN,150,-155,155,155,155,B,Single-ply,Masters 3,M
3,Wilhelm Thell,1939,110,102.7,AUT,140,145,150,150,150,B,Single-ply,Masters 3,M
1,Mauno Kontto,1941,125,123.5,FIN,175,185,195,195,195,B,Single-ply,Masters 3,M
2,Riku Suonpää,1940,125,111.4,FIN,-135,135,145,145,145,B,Single-ply,Masters 3,M
1,Päiviö Säätelä,1936,125+,134.4,FIN,180,187.5,-200,187.5,187.5,B,Single-ply,Masters 3,M
DQ,Peter Schwarz,1940,125+,125.3,GER,-182.5,-185,-187.5,,,B,Single-ply,Masters 3,M
DQ,Eduard Dobrõi,1941,125+,136.3,EST,-155,-155,-160,,,B,Single-ply,Masters 3,M
