Place,Name,Best3SquatKg,Best3BenchKg,Best3DeadliftKg,TotalKg,Event,Equipment,BodyweightKg,Sex
1,Ed Coan,442.25,257.19,322.05,1021.49,SBD,Single-ply,,M
2,Art LaBare,364.69,259.91,332.48,957.08,SBD,Single-ply,,M
3,Tony Saunders,419.57,214.55,299.82,933.94,SBD,Single-ply,,M
4,Anthony Clark,339.74,274.88,299.82,914.9,SBD,Single-ply,,M
5,Tim Bruner,319.78,209.56,299.82,829.62,SBD,Single-ply,,M
