Place,Sex,WeightClassKg,BodyweightKg,Name,Country,Squat1Kg,Squat2Kg,Squat3Kg,Best3SquatKg,Bench1Kg,Bench2Kg,Bench3Kg,Bench4Kg,Best3BenchKg,Deadlift1Kg,Deadlift2Kg,Deadlift3Kg,Best3DeadliftKg,TotalKg,Event,Equipment
1,F,52,51.6,Karin Hollaus,AUT,115,120,-127.5,120,65,70,-72.5,,70,130,137.5,-142.5,137.5,327.5,SBD,Single-ply
1,F,56,55.5,Alison Seabright,GBR,115,122.5,130,130,72.5,-77.5,77.5,,77.5,120,130,135,135,342.5,SBD,Single-ply
1,F,60,59,Linda Kåda Høiland,NOR I,152.5,160,162.5,162.5,75,80,82.5,,82.5,165,175,-180,175,420,SBD,Single-ply
2,F,60,59.7,Bente Restad,NOR II,110,120,-125,120,75,80,-82.5,,80,130,137.5,-142.5,137.5,337.5,SBD,Single-ply
1,F,67.5,63.4,Isabel Garcia,ESP,160,170,-175,170,-95,95,-100,,95,180,190,195,195,460,SBD,Single-ply
2,F,67.5,66.7,Gillian Wright,GBR,-150,-160,160,160,100,-105,-105,,100,180,190,195,195,455,SBD,Single-ply
3,F,67.5,67.4,Bente Arntsen,NOR I,160,165,-167.5,165,117.5,-122.5,-122.5,,117.5,165,-170,-170,165,447.5,SBD,Single-ply
4,F,67.5,67.1,Grete Nessø,NOR II,135,145,-152.5,145,-80,80,85,,85,140,155,-162.5,155,385,SBD,Single-ply
1,F,75,72.5,Inger Blikra,NOR I,200,215,220,220,110,120,122.5,,122.5,200,215,-217.5,215,557.5,SBD,Single-ply
2,F,75,71.8,Linda Kristensen,NOR I,172.5,182.5,190,190,-100,100,-110,,100,172.5,182.5,-187.5,182.5,472.5,SBD,Single-ply
3,F,75,69.7,Jackie Blasbery,GBR,145,157.5,167.5,167.5,90,97.5,102.5,,102.5,170,182.5,190,190,460,SBD,Single-ply
1,F,82.5,80.1,Heidi Hille Arnesen,NOR II,180,-190,195,195,102.5,105,107.5,,107.5,-180,182.5,-192.5,182.5,485,SBD,Single-ply
2,F,82.5,82,Jean Maton,GBR,145,152.5,160,160,100,107.5,110,,110,150,170,-180,170,440,SBD,Single-ply
3,F,82.5,75.2,Anita Sæbø,NOR II,165,-172.5,-172.5,165,95,100,105,,105,150,157.5,-160,157.5,427.5,SBD,Single-ply
1,F,90,84.8,Rosemarie Beer,AUT,160,170,180,180,110,115,120,,120,165,175,185,185,485,SBD,Single-ply
2,F,90,85,Anna Gimeno,ESP,120,-130,132.5,132.5,70,77.5,82.5,,82.5,105,120,-130,120,335,SBD,Single-ply
1,F,90+,114.4,Hildeborg Juvet Hugdal,NOR I,242.5,252.5,257.5,257.5,132.5,135,137.5,,137.5,180,185,190,190,585,SBD,Single-ply
2,F,90+,115.2,Suzanne Last,GBR,180,190,195,195,105,112.5,-117.5,,112.5,160,175,182.5,182.5,490,SBD,Single-ply
1,M,52,51.4,Patrick Constantine,GBR,175,190,200,200,95,100,105,,105,200,215,-225,215,520,SBD,Single-ply
1,M,75,74.7,Joakim Bjerke,NOR II,230,240,-250,240,185,-192.5,192.5,211,192.5,220,230,237.5,237.5,670,SBD,Single-ply
1,M,82.5,81.2,Shane Brody,IRL,265,275,-280,275,157.5,165,170,,170,265,-272.5,-272.5,265,710,SBD,Single-ply
2,M,82.5,82.5,Geir Bedin,NOR II,270,285,292.5,292.5,145,150,-152.5,,150,260,-270,-270,260,702.5,SBD,Single-ply
3,M,82.5,82,Thomas Loitelsberger,AUT,222.5,227.5,235,235,-160,-160,165,,165,235,240,-245,240,640,SBD,Single-ply
4,M,82.5,81.8,Helmut Moeth,AUT,230,240,-250,240,140,145,-150,,145,235,245,-255,245,630,SBD,Single-ply
1,M,90,89,Alexander Kirketeig,NOR I,300,312.5,-320,312.5,192.5,200,-205,,200,270,282.5,287.5,287.5,800,SBD,Single-ply
2,M,90,89,Paulo Jorge Duarte,POR,275,285,292.5,292.5,175,-185,,,175,265,275,285,285,752.5,SBD,Single-ply
3,M,90,89.9,Arild Bokneberg,NOR II,250,-260,260,260,167.5,175,180,,180,240,255,260,260,700,SBD,Single-ply
DQ,M,90,89.8,Fredrik Green,SWE,-280,-300,-300,,,,,,,,,,,,SBD,Single-ply
1,M,100,98,Anibal Manuel Coimbra Marques,LUX,330,342.5,347.5,347.5,212.5,222.5,225,,225,325,332.5,-337.5,332.5,905,SBD,Single-ply
2,M,100,99.6,Andreas Hjelmtveit,NOR I,310,320,335,335,180,-190,-190,,180,320,340,-350,340,855,SBD,Single-ply
3,M,100,99.8,Frode Fjogstad,NOR I,280,-290,290,290,210,-217.5,-217.5,,210,-270,-270,270,270,770,SBD,Single-ply
4,M,100,99.2,Kim Dahl Hansen,DEN,-252.5,252.5,-265,252.5,190,200,-207.5,,200,270,280,-287.5,280,732.5,SBD,Single-ply
5,M,100,98.6,Steen Hansen,DEN,-250,-250,270,270,160,170,-175,,170,270,290,-300,290,730,SBD,Single-ply
1,M,110,108,Tor-Herman Omland,NOR I,-340,350,-360,350,230,237.5,240,,240,305,-315,315,315,905,SBD,Single-ply
2,M,110,108.3,Jorge Rodrigues,POR,315,325,,325,-145,145,155,,155,315,327.5,337.5,337.5,817.5,SBD,Single-ply
3,M,110,109.7,Andrew Rodney,GBR,290,310,317.5,317.5,180,-190,190,,190,290,310,-320,310,817.5,SBD,Single-ply
4,M,110,109.3,Marco Oliva,LUX,245,252.5,260,260,130,-135,-137.5,,130,255,265,272.5,272.5,662.5,SBD,Single-ply
1,M,125,124.6,Dean Bowring,GBR,310,330,345,345,-265,265,-285,,265,290,320,-332.5,320,930,SBD,Single-ply
2,M,125,120.3,Andy Hawkins,GBR,-280,-290,290,290,222.5,-227.5,-227.5,,222.5,230,265,287.5,287.5,800,SBD,Single-ply
1,M,125+,126.4,Knut Hulbakviken,NOR II,310,330,340,340,200,220,230,,230,320,-330,330,330,900,SBD,Single-ply
2,M,125+,126,Mick Ashurst,GBR,-320,330,342.5,342.5,185,192.5,197.5,,197.5,310,325,335,335,875,SBD,Single-ply
