Place,Name,Division,Country,BodyweightKg,Squat1Kg,Squat2Kg,Squat3Kg,Best3SquatKg,Bench1Kg,Bench2Kg,Bench3Kg,Best3BenchKg,Deadlift1Kg,Deadlift2Kg,Deadlift3Kg,Best3DeadliftKg,TotalKg,WeightClassKg,Sex,CyrillicName,BirthYear,Equipment,Event
1,Ēriks Silovs,T1,Latvia,58.6,120,125,130,130,52.5,56,-57.5,56,-125,,125,125,311,60,M,,1997,Wraps,SBD
2,Elvis Zaļims,T1,Latvia,58.9,75,80,,80,40,-45,-45,40,85,95,-105,95,215,60,M,,1998,Wraps,SBD
1,Valentins Peleckis,T2,Latvia,58.05,80,90,95,95,85,90,92.5,92.5,125,135,145,145,332.5,60,M,,1994,Wraps,SBD
1,Regimants Peleckis,J,Latvia,57.35,125,135,-140,135,92.5,-97.5,-97.5,92.5,155,165,170,170,397.5,60,M,,1991,Wraps,SBD
1,Georgiy Mikelashvili,O,Georgia,59.6,150,-171,,150,110,117.5,123,123,170,190,-210,190,463,60,M,,1985,Wraps,SBD
1,Elias Hiissa,T1,Finland,63.3,115,120,127.5,127.5,85,90,-95,90,160,170,-180,170,387.5,67.5,M,,1996,Wraps,SBD
2,Rihards Chiapas Tomass,T1,Latvia,66.3,75,80,85,85,45,47.5,-50,47.5,90,100,105,105,237.5,67.5,M,,2000,Wraps,SBD
DQ,Lauris Kalasnikovs,T1,Latvia,63.8,-115,-115,-115,,,,,,,,,,,67.5,M,,1998,Wraps,SBD
1,Vladislav Korkin,T2,Russia,67.45,140,150,-161,150,90,-97.5,-100,90,165,175,181,181,421,67.5,M,Владислав Коркин,1993,Wraps,SBD
1,Hymsuen Liu,T3,Great Britain,66.55,150,170,-185,170,85,-100,-100,85,220,230,-240,230,485,67.5,M,,1992,Wraps,SBD
1,Merat Tafreshi,J,Great Britain,65.7,130,140,-150,140,70,80,-85,80,160,170,175,175,395,67.5,M,,1992,Wraps,SBD
1,Sergey Alampiev,M3,Russia,66.4,145,155,160,160,90,100,105,105,180,200,210,210,475,67.5,M,Сергей Алампиев,1957,Wraps,SBD
1,Vladimir Sviderskiy,M5,Russia,63.55,110,115,120,120,77.5,82.5,-85,82.5,125,130,135,135,337.5,67.5,M,Владимир Свидерский,1951,Wraps,SBD
1,Ernest Ruzin,M7,Israel,65.55,105,-120,120,120,75,82.5,-85,82.5,130,142.5,150,150,352.5,67.5,M,,1937,Wraps,SBD
DQ,Yuri Kiselev,M7,Russia,66.2,85,,,85,60,70,,70,,,,,,67.5,M,Юрий Киселев,1937,Wraps,SBD
1,Kristers Zaķis,T1,Latvia,72.1,-85,85,-90,85,50,-55,-55,50,105,115,120,120,255,75,M,,1998,Wraps,SBD
1,Jamal Ashraf,T2,Great Britain,73.75,115,125,135,135,80,90,-95,90,175,-190,190,190,415,75,M,,1995,Wraps,SBD
1,Valdis Priedols,J,Latvia,73.5,155,165,170,170,107.5,112.5,-117.5,112.5,195,205,215,215,497.5,75,M,,1990,Wraps,SBD
2,Artjoms Ignatenko,J,Latvia,74.8,150,160,172.5,172.5,-95,100,110,110,175,195,215,215,497.5,75,M,,1991,Wraps,SBD
3,Alexei Alexeev Goruho,J,Israel,74.1,-110,110,130,130,110,-120,-120,110,100,130,150,150,390,75,M,,1989,Wraps,SBD
1,Kevin Stuart,O,Great Britain,74.4,185,192.5,-200,192.5,150,165,172.5,172.5,230,-240,-240,230,595,75,M,,1978,Wraps,SBD
2,Stanislav Marochko,O,Ukraine,73.7,190,200,-205,200,135,-140,140,140,-210,210,-217.5,210,550,75,M,Станислав Марочко,1981,Wraps,SBD
3,Pavel Tilis,O,Israel,73.55,-180,180,195,195,120,130,-140,130,210,220,-230,220,545,75,M,,1978,Wraps,SBD
4,Kieran Acott,O,Great Britain,72.4,-160,165,185,185,110,120,-132.5,120,225,,,225,530,75,M,,1978,Wraps,SBD
1,Alexander Papir,M6,Israel,74.3,95,-110,115,115,92.5,-102.5,,92.5,140,,,140,347.5,75,M,,1945,Wraps,SBD
1,Grigori Rubin,M8,Israel,71.6,80,90,,90,70,75,,75,120,125,,125,290,75,M,,1936,Wraps,SBD
1,Aleksi Hiissa,T2,Finland,80.95,120,130,-141,130,75,80,-82.5,80,150,160,-171,160,370,82.5,M,,1993,Wraps,SBD
1,Aleksandrs Jasinskis,J,Latvia,80.4,160,170,-180,170,120,130,-140,130,210,225,240,240,540,82.5,M,,1990,Wraps,SBD
1,Andriy Ivzhenko,O,Ukraine,81.9,-225,225,240,240,140,-155,155,155,260,-280,280,280,675,82.5,M,Андрій Івженко,1977,Wraps,SBD
2,Hassan Zaid,O,Great Britain,81.6,185,-205,205,205,110,120,-125,120,235,-252.5,-252.5,235,560,82.5,M,,1987,Wraps,SBD
1,Dmitrijs Stepenko,M1,Latvia,81.95,170,185,190,190,130,140,145,145,200,210,220,220,555,82.5,M,,1970,Wraps,SBD
1,Konstantsin Dremiankou,M2,Belarus,82.3,180,190,200,200,150,-157.5,157.5,157.5,-230,230,,230,587.5,82.5,M,,1967,Wraps,SBD
1,Sergei Druzhkov,M5,Russia,81.4,178,182.5,185,185,55,-65,65,65,175,-190,190,190,440,82.5,M,Сергей Дружков,1950,Wraps,SBD
2,Edmunds Kenigsvalds,M5,Latvia,81.7,-70,-70,70,70,105,110,112.5,112.5,-115,115,-120,115,297.5,82.5,M,,1948,Wraps,SBD
1,Jan Jíša,J,Czech Republic,88.7,200,220,230,230,130,140,142.5,142.5,220,240,250,250,622.5,90,M,,1988,Wraps,SBD
DQ,Javidan Ramazanov,J,Azerbaijan,90,-130,-130,,,,,,,,,,,,90,M,,1989,Wraps,SBD
1,Aleksey Bazhenov,O,Russia,88.9,230,240,247.5,247.5,170,180,187.5,187.5,250,260,-267.5,260,695,90,M,Алексей Баженов,1977,Wraps,SBD
2,Martin Kostlán,O,Czech Republic,87.2,170,180,-190,180,130,137.5,-142.5,137.5,220,240,250,250,567.5,90,M,,1987,Wraps,SBD
1,Dave Rade,M1,Swaziland,89.7,180,190,-200,190,145,-150,-150,145,250,265,271,271,606,90,M,,1969,Wraps,SBD
1,Aleksandrs Miglāns,M2,Latvia,86,190,200,212.5,212.5,150,155,-160,155,210,220,,220,587.5,90,M,,1963,Wraps,SBD
1,Aleksandr Tsvetkov,M3,Russia,89.4,-200,200,210,210,115,120,,120,210,232.5,240,240,570,90,M,Александр Цветков,1957,Wraps,SBD
DQ,Timothy Roche,M3,USA,85.6,-190,-190,-190,,,,,,,,,,,90,M,,1960,Wraps,SBD
1,Josef Tullo,T3,Australia,91.5,-140,155,165,165,150,160,165,165,220,240,-245,240,570,100,M,,1992,Wraps,SBD
2,Péter Juhász,T3,Hungary,100,-180,-180,180,180,120,130,-137.5,130,200,-230,-230,200,510,100,M,,1993,Wraps,SBD
1,Javidan Ramazanov,J,Azerbaijan,91.3,120,125,135,135,-110,110,120,120,170,190,210,210,465,100,M,,1989,Wraps,SBD
1,Viktor Galaguz,O,Ukraine,98.4,270,-280,-280,270,200,-205,205,205,-300,300,-310,300,775,100,M,Віктор Галагуз,1984,Wraps,SBD
2,Vladimir Grevtsov,O,Russia,100,255,265,,265,185,197.5,-205,197.5,260,-270,,260,722.5,100,M,Владимир Гревцов,1985,Wraps,SBD
3,Marcin Kuklis,O,Poland,96.8,230,-240,-240,230,150,157.5,162.5,162.5,235,245,-270,245,637.5,100,M,,1982,Wraps,SBD
4,Azer Aliyev,O,Azerbaijan,97.9,-205,205,215,215,142.5,150,-155,150,225,240,245,245,610,100,M,,1986,Wraps,SBD
DQ,Christoph Scheel,O,Germany,91,-140,,,,,,,,,,,,,100,M,,1985,Wraps,SBD
1,Vladimir Minin,M1,Russia,99,-280,280,300,300,160,167.5,-172.5,167.5,280,295,,295,762.5,100,M,Владимир Минин,1967,Wraps,SBD
1,Vyacheslav Frank,M2,Russia,98.15,-165,165,175,175,132.5,137.5,141,141,205,-220,220,220,536,100,M,Вячеслав Франк,1962,Wraps,SBD
2,Aldis Kampāns,M2,Latvia,97.45,120,130,140,140,100,-110,-110,100,170,-177.5,-180,170,410,100,M,,1965,Wraps,SBD
DQ,Harri Hiissa,M2,Finland,99.4,180,210,240,240,120,130,,130,-270,,,,,100,M,,1962,Wraps,SBD
1,Vasilijs Drobovs,M3,Latvia,99.35,160,-170,170,170,135,142.5,147.5,147.5,175,195,212.5,212.5,530,100,M,,1958,Wraps,SBD
2,Valeriy Akentyev,M3,Russia,96.6,140,150,170,170,155,160,165,165,170,180,192.5,192.5,527.5,100,M,Валерий Акентьев,1958,Wraps,SBD
1,František Esser,M6,Czech Republic,98.9,100,-110,-110,100,110,130,-141,130,150,170,193,193,423,100,M,,1946,Wraps,SBD
1,Valeriy Bystrov,M7,Russia,95.7,175,185,,185,105,112.5,-115,112.5,185,195,200,200,497.5,100,M,Валерий Быстров,1941,Wraps,SBD
DQ,Erlends Eversons,T1,Latvia,104.6,-105,-105,-105,,,,,,,,,,,110,M,,1997,Wraps,SBD
1,Aleksey Alekseev,J,Russia,109.2,270,280,-291,280,190,200,205,205,310,325,-337.5,325,810,110,M,Алексей Алексеев,1988,Wraps,SBD
2,Kristaps Somoss,J,Latvia,106.25,240,-250,-250,240,170,-180,-180,170,270,285,-290,285,695,110,M,,1989,Wraps,SBD
3,Ville Antikainen,J,Finland,102.7,215,230,240,240,125,140,-150,140,270,-290,-290,270,650,110,M,,1988,Wraps,SBD
4,Josef Peška,J,Czech Republic,107.9,-230,230,-240,230,160,170,175,175,240,-260,-260,240,645,110,M,,1990,Wraps,SBD
1,Sergey Starodubskiy,O,Russia,106.4,302.5,310,,310,215,225,-232.5,225,302.5,-320,,302.5,837.5,110,M,Сергей Стародубский,1977,Wraps,SBD
2,Nikolay Fesanyuk,O,Russia,106.35,270,280,295,295,175,182.5,185,185,300,320,330,330,810,110,M,Николай Фесанюк,1984,Wraps,SBD
3,Ramiz Mirzayev,O,Kazakhstan,107.5,250,270,285,285,150,160,170,170,260,280,300,300,755,110,M,,1980,Wraps,SBD
4,Ivane Kobiashvili,O,Germany,102.1,260,280,-290,280,160,165,-170,165,290,-305,,290,735,110,M,,1977,Wraps,SBD
5,Elnur Mammadov,O,Azerbaijan,102,255,265,272.5,272.5,165,177.5,-182.5,177.5,260,-287.5,,260,710,110,M,,1978,Wraps,SBD
6,Andrey Fedoseev,O,Russia,100.5,220,-230,240,240,175,185,190,190,250,265,280,280,710,110,M,Андрей Федосеев,1974,Wraps,SBD
7,Aleksandrs Zvezdenkovs,O,Latvia,107.4,215,225,235,235,150,160,-165,160,250,270,280,280,675,110,M,,1975,Wraps,SBD
8,Eduards Mišovs,O,Latvia,100.4,190,205,220,220,150,160,170,170,200,220,235,235,625,110,M,,1975,Wraps,SBD
9,Paul Hammond Darren,O,Great Britain,107.5,-200,200,-245,200,120,130,-142.5,130,250,270,290,290,620,110,M,,1972,Wraps,SBD
DQ,Maksims Popovs,O,Latvia,105.95,-240,-240,-240,,,,,,,,,,,110,M,,1984,Wraps,SBD
1,Michael Göck,M1,Germany,106,220,,,220,160,170,-175,170,100,,,100,490,110,M,,1968,Wraps,SBD
1,Yuriy Usoltsev,M2,Russia,108.6,200,210,,210,170,-180,180,180,150,180,210,210,600,110,M,Юрий Усольцев,1964,Wraps,SBD
1,Nikolais Šabaļins,M3,Latvia,107.8,205,225,235,235,-140,145,152.5,152.5,290,305,315,315,702.5,110,M,,1961,Wraps,SBD
1,Michael Schrott,O,Germany,124.8,300,320,-330,320,180,190,200,200,300,,,300,820,125,M,,1972,Wraps,SBD
2,Alexey Zaydlin,O,Israel,116.2,210,235,250,250,180,200,-220,200,300,320,330,330,780,125,M,,1986,Wraps,SBD
3,Aleksandrs Aleksejevs,O,Latvia,117.9,250,262.5,-270,262.5,170,180,182.5,182.5,-290,295,307.5,307.5,752.5,125,M,,1980,Wraps,SBD
4,Ramis Nuruev,O,Russia,122,-252.5,260,272.5,272.5,180,190,-200,190,250,270,290,290,752.5,125,M,,1984,Wraps,SBD
5,Viktor Klimov,O,Russia,114.7,-260,-260,260,260,165,180,-192.5,180,265,-285,290,290,730,125,M,Виктор Климов,1975,Wraps,SBD
1,Sergey Samoylenko,M1,Russia,112.8,80,,,80,140,150,155,155,140,,,140,375,125,M,Сергей Самойленко,1969,Wraps,SBD
1,Didier Michelon,M2,France,115.5,170,190,200,200,150,170,185,185,135,160,200,200,585,125,M,,1963,Wraps,SBD
1,Jack Barnard,T1,Great Britain,135.1,-170,170,-200,170,-90,90,-105,90,150,175,185,185,445,140,M,,1996,Wraps,SBD
1,Nikolay Iov,J,Russia,125.7,250,260,270,270,180,-190,190,190,250,265,275,275,735,140,M,Николай Иов,1990,Wraps,SBD
2,Ville Pehkonen,J,Finland,133.5,-250,250,265,265,160,175,182.5,182.5,245,255,270,270,717.5,140,M,,1988,Wraps,SBD
1,Konstantīn Konstantīnovs,O,Latvia,137,290,310,330,330,230,-245,,230,350,380,400,400,960,140,M,,1978,Wraps,SBD
2,Wayne Howlett,O,Australia,125.5,280,300,310,310,210,220,225,225,280,300,310,310,845,140,M,,1980,Wraps,SBD
3,Alexey Pisarevskiy,O,Kazakhstan,127.9,230,-240,250,250,200,210,220,220,250,260,270,270,740,140,M,,1987,Wraps,SBD
1,Sergey Piniachev,M2,Israel,127.1,205,240,-280,240,167.5,177.5,182.5,182.5,220,260,-280,260,682.5,140,M,,1963,Wraps,SBD
1,Alexander Burlakov,M3,Russia,133,200,210,217.5,217.5,160,170,185,185,200,220,232.5,232.5,635,140,M,Александр Бурлаков,1959,Wraps,SBD
1,Adrian Tullo,O,Australia,163.75,280,290,300,300,225,235,245,245,-320,320,,320,865,140+,M,,1972,Wraps,SBD
2,Sergei Rubtsov,O,Kazakhstan,160.7,210,,,210,170,,,170,210,,,210,590,140+,M,,1964,Wraps,SBD
1,Norman Rice,M2,USA,165.6,185,265,-272.5,265,145,-175,175,175,230,265,-277.5,265,705,140+,M,,1966,Wraps,SBD
1,Amy Newton Monique,T3,Great Britain,47.95,65,-72.5,72.5,72.5,37.5,-40,-40,37.5,-115,,115,115,225,48,F,,1992,Wraps,SBD
1,Ludmila Jarikova,J,Latvia,46.95,70,77.5,82.5,82.5,45,50,55,55,85,95,-105,95,232.5,48,F,,1988,Wraps,SBD
1,Amy Newton Monique,O,Great Britain,47.95,65,-72.5,72.5,72.5,37.5,-40,-40,37.5,-115,,115,115,225,48,F,,1992,Wraps,SBD
1,Rena Aliyeva,O,Azerbaijan,55.45,100,-105,-105,100,65,70,-72.5,70,120,-135,,120,290,56,F,,1977,Wraps,SBD
2,Ariela Amitay,O,Israel,53.55,72.5,77.5,-82.5,77.5,60,65,-67.5,65,90,100,110,110,252.5,56,F,,1964,Wraps,SBD
3,Jeļena Avota,O,Latvia,55.8,80,-85,-85,80,50,57.5,-65,57.5,80,87.5,95,95,232.5,56,F,,1976,Wraps,SBD
1,Ariela Amitay,M2,Israel,53.55,72.5,77.5,-82.5,77.5,60,65,-67.5,65,90,100,110,110,252.5,56,F,,1964,Wraps,SBD
1,Hannah Hann,O,Great Britain,60,70,80,92.5,92.5,47.5,52.5,-57.5,52.5,100,107.5,117.5,117.5,262.5,60,F,,1982,Wraps,SBD
1,Iris Shekhter,O,Israel,65.35,92.5,102.5,-110,102.5,82.5,87.5,,87.5,135,145,152.5,152.5,342.5,67.5,F,,1978,Wraps,SBD
1,Laura Sembele,T1,Latvia,74.2,70,-80,-80,70,35,40,-45,40,95,110,-115,110,220,75,F,,1997,Wraps,SBD
1,Suzanne Prusnek,O,USA,70.65,130,137.5,-147.5,137.5,85,87.5,-90,87.5,170,177.5,182.5,182.5,407.5,75,F,,1956,Wraps,SBD
2,Dora Lontro,O,Portugal,74.9,102.5,105,107.5,107.5,55,-60,-62.5,55,125,135,-141,135,297.5,75,F,,1987,Wraps,SBD
1,Suzanne Prusnek,M4,USA,70.65,130,137.5,-147.5,137.5,85,87.5,-90,87.5,170,177.5,182.5,182.5,407.5,75,F,,1956,Wraps,SBD
1,Tatyana Merezhko,O,Russia,81.55,182.5,192.5,200,200,87.5,92.5,-97.5,92.5,190,202.5,207.5,207.5,500,82.5,F,Татьяна Мережко,1978,Wraps,SBD
1,Anzela Romanovica,M2,Latvia,76.55,130,140,145,145,100,107.5,110,110,160,170,180,180,435,82.5,F,,1963,Wraps,SBD
1,Jolanta Logina,O,Latvia,86.95,130,-140,140,140,90,95,102.5,102.5,160,170,185,185,427.5,90,F,,1978,Wraps,SBD
1,Natalija Ņikitina,M1,Latvia,94.1,140,150,160,160,75,-80,,75,150,170,180,180,415,90+,F,,1971,Wraps,SBD
1,Ludmila Ignatenko,M2,Latvia,113.8,90,100,-110,100,62.5,67.5,70,70,110,120,130,130,300,90+,F,,1966,Wraps,SBD
1,Mihails Šabarovs,O,Latvia,50.25,170,-220,-241,170,105,-115,,105,160,180,190,190,465,52,M,,1979,Multi-ply,SBD
1,George Gordon,T2,Great Britain,58.35,135,152.5,-160,152.5,47.5,55,60,60,140,152.5,160,160,372.5,60,M,,1995,Multi-ply,SBD
DQ,Merat Tafreshi,J,Great Britain,57,-190,-190,-190,,,,,,,,,,,60,M,,1992,Multi-ply,SBD
1,Oleg Ivanyukov,O,Israel,58.9,110,120,135,135,100,-107.5,-110,100,130,142.5,-150,142.5,377.5,60,M,,1980,Multi-ply,SBD
2,George Gordon,O,Great Britain,58.35,135,152.5,-160,152.5,47.5,55,60,60,140,152.5,160,160,372.5,60,M,,1995,Multi-ply,SBD
DQ,Rihards Chiapas Tomass,T1,Latvia,65.3,-90,-100,-105,,,,,,,,,,,67.5,M,,2000,Multi-ply,SBD
1,Aleksandr Petukhov,T2,Russia,67.5,-215,,215,215,135,140,145,145,235,240,250,250,610,67.5,M,Александр Петухов,1995,Multi-ply,SBD
DQ,Marc Tejero,O,USA,67,-277.5,-277.5,-277.5,,,,,,,,,,,67.5,M,,1978,Multi-ply,SBD
1,Sergey Alampiev,M3,Russia,67.2,180,200,205,205,110,-115,-115,110,180,200,-210,200,515,67.5,M,Сергей Алампиев,1957,Multi-ply,SBD
1,Gun-Hoi Koo,M6,South Korea,64.5,140,150,160,160,85,90,-92.5,90,170,175,-180,175,425,67.5,M,,1946,Multi-ply,SBD
2,Budgie Mullan,M6,Great Britain,66.35,130,137.5,-142.5,137.5,80,-90,-90,80,140,-147.5,150,150,367.5,67.5,M,,1943,Multi-ply,SBD
1,Bub Hur Kyung,M7,South Korea,60.7,80,-90,90,90,95,110,-115,110,95,115,120,120,320,67.5,M,,1937,Multi-ply,SBD
1,Daniel Mervis,T1,Great Britain,73.95,160,-170,,160,-120,120,-132.5,120,140,170,180,180,460,75,M,,1996,Multi-ply,SBD
1,Giedrius Bucinskas,T2,Latvia,70.75,120,150,-180,150,80,90,-100,90,150,170,190,190,430,75,M,,1993,Multi-ply,SBD
1,Gordon Wood,O,Great Britain,72.4,180,210,-230,210,80,120,,120,-180,180,-220,180,510,75,M,,1973,Multi-ply,SBD
DQ,Pavel Tilis,O,Israel,74.65,-260,-260,-280,,,,,,,,,,,75,M,,1978,Multi-ply,SBD
1,David Mannering,M3,Great Britain,73.8,150,-251,-251,150,115,-180,180,180,150,210,-246,210,540,75,M,,1960,Multi-ply,SBD
1,Alexander Ponedelin,M5,Russia,74.1,225,240,250,250,85,-92.5,-95,85,215,230,-240,230,565,75,M,Александр Понеделин,1950,Multi-ply,SBD
1,Grigori Rubin,M8,Israel,71.35,-110,110,122.5,122.5,82.5,90,95,95,120,132.5,140,140,357.5,75,M,,1936,Multi-ply,SBD
1,Mark Cooney,J,Great Britain,80.1,210,225,-250,225,-140,140,-150,140,210,-235,-235,210,575,82.5,M,,1989,Multi-ply,SBD
1,Vasiliy Tsvetkov,O,Russia,78.3,290,-310,-325,290,190,202.5,210,210,245,-260,260,260,760,82.5,M,Василий Цветков,1981,Multi-ply,SBD
2,Lee Gordon,O,Great Britain,80.7,240,272.5,-290,272.5,160,180,190,190,240,260,-300,260,722.5,82.5,M,,1970,Multi-ply,SBD
1,Dmitrijs Stepenko,M1,Latvia,81.25,235,-250,250,250,175,-185,,175,220,230,-240,230,655,82.5,M,,1970,Multi-ply,SBD
DQ,Yong-Soo Lee,M2,South Korea,82.05,270,-292.5,292.5,292.5,-160,160,170,170,-230,-230,-230,,,82.5,M,,1961,Multi-ply,SBD
1,Patrick Breton,M3,France,80.05,210,-230,230,230,130,-140,,130,240,,,240,600,82.5,M,,1960,Multi-ply,SBD
1,Raimo Karjalainen,M4,Finland,82,-210,215,,215,130,137.5,,137.5,210,230,-240,230,582.5,82.5,M,,1953,Multi-ply,SBD
1,Edmunds Kenigsvalds,M5,Latvia,82,50,62.5,70,70,105,112.5,115,115,-110,110,-115,110,295,82.5,M,,1948,Multi-ply,SBD
DQ,Vadims Grabars,M5,Russia,79.6,-215,-215,-215,,,,,,,,,,,82.5,M,,1951,Multi-ply,SBD
1,Aimo Mursu,M6,Finland,81.15,180,200,-210,200,70,85,-92.5,85,170,-200,-215,170,455,82.5,M,,1942,Multi-ply,SBD
1,Aigars Vilners,T3,Latvia,89.3,200,220,230,230,110,140,-160,140,200,225,240,240,610,90,M,,1993,Multi-ply,SBD
1,Ainis Stagars,J,Latvia,89.25,-280,280,300,300,150,-190,-190,150,290,310,,310,760,90,M,,1989,Multi-ply,SBD
2,Evgeny Sokolov,J,Russia,88.2,260,-280,-280,260,190,205,210,210,270,-290,-290,270,740,90,M,,1988,Multi-ply,SBD
DQ,Kalle Räsänen,J,Finland,90,-260,-260,,,,,,,,,,,,90,M,,1990,Multi-ply,SBD
DQ,Curtis Arnold,J,Great Britain,90,-235,,-235,,,,,,,,,,,90,M,,1988,Multi-ply,SBD
1,Maksim Piskunov,O,Russia,89.25,370,-390,-390,370,230,237.5,245,245,300,310,-320,310,925,90,M,Максим Пискунов,1982,Multi-ply,SBD
2,Steve Loncke,O,Belgium,89.5,-350,-350,350,350,240,-255,-255,240,280,300,-315,300,890,90,M,,1975,Multi-ply,SBD
3,Adam Pickles,O,Great Britain,90,270,290,300,300,180,200,,200,280,300,-320,300,800,90,M,,1981,Multi-ply,SBD
4,Scott Kuderieck,O,USA,90,-272.5,272.5,,272.5,-180,180,,180,227.5,262.5,-272.5,262.5,715,90,M,,1974,Multi-ply,SBD
5,Eugenijus Cibulskis,O,Latvia,89.4,-270,270,-290,270,180,190,195,195,200,225,-245,225,690,90,M,,1975,Multi-ply,SBD
6,Duncan Minns,O,Great Britain,86.75,-240,240,265,265,125,-140,140,140,240,255,265,265,670,90,M,,1975,Multi-ply,SBD
DQ,Justin Hurley,O,Great Britain,89.75,-360,-360,-360,,,,,,,,,,,90,M,,1976,Multi-ply,SBD
1,Eric Athias,M1,France,87.6,310,-340,-340,310,200,-220,-223,200,275,-305,305,305,815,90,M,,1971,Multi-ply,SBD
2,Mikhail Veber,M1,Russia,88.6,120,,,120,242.5,252.5,-261,252.5,127.5,,,127.5,500,90,M,Михаил Вебер,1971,Multi-ply,SBD
1,Aleksandr Tsvetkov,M3,Russia,89.55,225,245,255,255,110,-130,,110,220,240,,240,605,90,M,Александр Цветков,1957,Multi-ply,SBD
1,Margonis Zīberts,M5,Latvia,89.3,180,-190,-205,180,100,112.5,-120,112.5,180,200,-220,200,492.5,90,M,,1951,Multi-ply,SBD
1,Evgeniy Khudoleev,M6,Russia,89,170,190,210,210,-170,170,-180,170,200,220,,220,600,90,M,Евгений Худолеев,1946,Multi-ply,SBD
1,Veselin Dimitrov,T3,Bulgaria,94.7,300,315,330,330,220,230,237.5,237.5,265,290,300,300,867.5,100,M,,1993,Multi-ply,SBD
1,Hafiz Verdiyev,J,Azerbaijan,95.7,280,320,340,340,215,225,235,235,305,325,-335,325,900,100,M,,1990,Multi-ply,SBD
2,Tomer Israel,J,Israel,97.2,290,-310,-310,290,-270,270,-280,270,150,250,-285,250,810,100,M,,1989,Multi-ply,SBD
3,Atis Zembahs,J,Latvia,100,-280,300,-315,300,160,-200,210,210,280,300,-310,300,810,100,M,,1988,Multi-ply,SBD
4,David Snow,J,Canada,95.2,207.5,232.5,257.5,257.5,150,-160,-160,150,250,272.5,-280,272.5,680,100,M,,1989,Multi-ply,SBD
DQ,Archili Shashurashvili,J,Georgia,98.9,-350,-350,-350,,,,,,,,,,,100,M,,1989,Multi-ply,SBD
1,Andrey Belyaev,O,Russia,94,320,,,320,290,305,-320,305,320,340,,340,965,100,M,Андрей Беляев,1983,Single-ply,SBD
2,Alexandar Kyurchev Nikolov,O,Bulgaria,98.15,350,370,,370,255,-265,265,265,305,-325,325,325,960,100,M,,1979,Multi-ply,SBD
3,Mikhaylo Zhelyazkov,O,Ukraine,96.6,340,350,-360,350,-230,230,235,235,300,310,315,315,900,100,M,Михайло Желязков,1980,Multi-ply,SBD
4,Curtis Arnold,O,Great Britain,93.3,-300,300,320,320,227.5,240,-252.5,240,270,290,,290,850,100,M,,1988,Multi-ply,SBD
5,Elnur Mammadov,O,Azerbaijan,99.2,320,340,350,350,210,-220,220,220,260,-280,,260,830,100,M,,1978,Multi-ply,SBD
6,Attila Szücs,O,Hungary,98.3,-300,300,320,320,200,-240,-245,200,240,255,-265,255,775,100,M,,1976,Multi-ply,SBD
7,Steven Plunkett,O,Great Britain,95.7,270,-300,-300,270,200,-220,220,220,200,240,,240,730,100,M,,1973,Multi-ply,SBD
8,Kalle Räsänen,O,Finland,91.15,220,240,260,260,180,195,205,205,-240,-250,250,250,715,100,M,,1990,Multi-ply,SBD
DQ,Marcin Kuklis,O,Poland,97,-300,-300,-300,,,,,,,,,,,100,M,,1982,Multi-ply,SBD
DQ,Jose Fontes Teixeira,M1,Portugal,93.65,-290,-290,-290,,,,,,,,,,,100,M,,1970,Multi-ply,SBD
1,Dmitriy Chertushkin,M2,Russia,98.3,220,,,220,190,-200,,190,200,215,230,230,640,100,M,Дмитрий Чертушкин,1965,Multi-ply,SBD
1,Oleg Kholodov,M3,Russia,98.7,190,220,,220,165,175,,175,190,210,,210,605,100,M,Олег Холодов,1961,Multi-ply,SBD
1,František Esser,M6,Czech Republic,98.2,85,105,120,120,105,145,-155,145,150,-180,180,180,445,100,M,,1946,Multi-ply,SBD
1,Nandor Fodor,T2,Hungary,101.8,205,-215,217.5,217.5,100,150,160,160,190,205,212.5,212.5,590,110,M,,1994,Multi-ply,SBD
1,Aleksey Alekseev,J,Russia,109,-350,370,-411,370,240,250,260,260,325,332.5,342.5,342.5,972.5,110,M,Алексей Алексеев,1988,Multi-ply,SBD
2,Kai-Oskari Lehtinen,J,Finland,106.5,-375,375,-390,375,260,270,-281,270,282.5,302.5,317.5,317.5,962.5,110,M,,1989,Multi-ply,SBD
3,Denis Rodyakin,J,Russia,108,380,-400,400,400,235,-245,-245,235,315,-335,-337.5,315,950,110,M,Денис Родякин,1988,Multi-ply,SBD
DQ,Austris Šaicāns,J,Latvia,106.3,-280,-280,,,,,,,,,,,,110,M,,1989,Multi-ply,SBD
1,Juha Someroja,O,Finland,109,-390,390,420,420,320,340,-351,340,340,-360,-382.5,340,1100,110,M,,1975,Multi-ply,SBD
2,Stoyan Andreev,O,Bulgaria,109.95,355,375,-390,375,240,255,-260,255,330,360,-383,360,990,110,M,,1978,Multi-ply,SBD
DQ,Ruslan Ovechko,O,Ukraine,108.2,-360,-370,-370,,,,,,,,,,,110,M,Руслан Овечко,1977,Multi-ply,SBD
1,Libor Bock,M2,Czech Republic,101.7,230,245,-260,245,140,205,-232.5,205,220,235,-250,235,685,110,M,,1964,Multi-ply,SBD
2,Jozsef Koscis,M2,Hungary,101.1,180,210,225,225,-110,110,-150,110,190,210,230,230,565,110,M,,1962,Multi-ply,SBD
1,Vincas Varza,M3,Latvia,104.2,250,260,270,270,180,185,-190,185,240,260,,260,715,110,M,,1957,Multi-ply,SBD
2,Valeriy Akentyev,M3,Russia,100.2,65,,,65,65,,,65,65,,,65,195,110,M,Валерий Акентьев,1958,Multi-ply,SBD
1,Matias Neuvonen,J,Finland,120.15,-220,220,245,245,180,-200,-200,180,210,230,-250,230,655,125,M,,1989,Multi-ply,SBD
1,Craig Coombes,O,Great Britain,111,425,455,,455,325,350,,350,300,332.5,-337.5,332.5,1137.5,125,M,,1975,Multi-ply,SBD
2,Ivars Cīrulis,O,Latvia,111.25,400,-420,,400,230,260,280,280,320,350,,350,1030,125,M,,1979,Multi-ply,SBD
3,Daniel Kurila,O,Slovak Republic,113.8,-360,380,-405,380,240,-255,-260,240,300,315,,315,935,125,M,,1979,Multi-ply,SBD
4,Petteri Hosio Henrik,O,Finland,118.5,-320,-320,320,320,300,-310,,300,280,-302.5,-317.5,280,900,125,M,,1979,Multi-ply,SBD
DQ,Henry Lehtola,O,Finland,110.15,-335,-335,-335,,,,,,,,,,,125,M,,1981,Multi-ply,SBD
DQ,Jamie Williams,O,Great Britain,123.55,-400,-400,-400,,,,,,,,,,,125,M,,1986,Multi-ply,SBD
DQ,Rufat Agaev,O,Azerbaijan,124.7,-435,-435,-435,,,,,,,,,,,125,M,,1975,Multi-ply,SBD
1,Vladimir Omelkov,M1,Russia,110.6,80,125,,125,150,170,,170,150,170,200,200,495,125,M,Владимир Омельков,1970,Multi-ply,SBD
1,Rocky Tilson,M2,USA,111.9,185,252.5,-285.5,252.5,85,152.5,,152.5,185,230,247.5,247.5,652.5,125,M,,1963,Multi-ply,SBD
DQ,Dainis Polis,M3,Latvia,114.25,-230,-230,-230,,,,,,,,,,,125,M,,1959,Multi-ply,SBD
DQ,David Beattie,M3,Great Britain,122.65,-380,-380,-380,,,,,,,,,,,125,M,,1961,Multi-ply,SBD
1,Evgeniy Dmitriev,M7,Russia,117.6,130,,,130,125,140,,140,160,180,,180,450,125,M,Евгений Дмитриев,1940,Multi-ply,SBD
1,Luis Batista,O,Portugal,126.4,-325,325,340,340,200,215,222.5,222.5,305,-330,-330,305,867.5,140,M,,1974,Multi-ply,SBD
DQ,Oliver Williamson,O,Great Britain,126.1,-340,-340,-340,,,,,,,,,,,140,M,,1985,Multi-ply,SBD
1,Sergey Piniachev,M2,Israel,126.7,-295,305,320,320,150,237.5,,237.5,250,-275,282.5,282.5,840,140,M,,1963,Multi-ply,SBD
1,Olli Ruohola,M3,Finland,125.5,250,270,-280,270,190,-200,,190,250,-270,,250,710,140,M,,1960,Multi-ply,SBD
1,Philippe Crets,O,Belgium,148.45,70,,,70,290,-320,-320,290,315,345,365,365,725,140+,M,,1976,Multi-ply,SBD
1,Leslie Watson,O,Great Britain,46.1,70,77.5,-85,77.5,60,-65,-65,60,85,95,-100,95,232.5,48,F,,1948,Multi-ply,SBD
1,Ariela Amitay,O,Israel,54.2,140,150,-160,150,-85,85,-90,85,125,132.5,140,140,375,56,F,,1964,Multi-ply,SBD
1,Ariela Amitay,M2,Israel,54.2,140,150,-160,150,-85,85,-90,85,125,132.5,140,140,375,56,F,,1964,Multi-ply,SBD
1,Susan Farrell,O,Great Britain,59.9,125,-140,-140,125,-100,100,-110,100,125,140,-150,140,365,60,F,,1982,Multi-ply,SBD
DQ,Eva Varga Violetta,T3,Hungary,66.45,-205,-218,-218,,,,,,,,,,,67.5,F,,1992,Multi-ply,SBD
1,Iris Shekhter,O,Israel,64.5,165,-206,-210,165,132.5,-142.5,-147.5,132.5,155,167.5,-177.5,167.5,465,67.5,F,,1978,Multi-ply,SBD
2,Chantal Rostagnat,O,France,66.3,-132.5,135,145,145,82.5,-87.5,-87.5,82.5,130,137.5,-150,137.5,365,67.5,F,,1967,Multi-ply,SBD
1,Olga Miglāne,M2,Latvia,61.6,120,130,140,140,70,-75,-75,70,110,120,-130,120,330,67.5,F,,1965,Multi-ply,SBD
1,Yulia Medvedeva,O,Russia,75,-245,245,,245,170,-183.5,,170,200,-220,,200,615,75,F,Юлия Медведева,1979,Multi-ply,SBD
2,Angela McNamara,O,Great Britain,73.55,200,-225,-225,200,-110,110,120,120,190,205,-212.5,205,525,75,F,,1973,Multi-ply,SBD
3,Hanne Bingle,O,Great Britain,74.5,-140,-140,140,140,115,122.5,-127.5,122.5,120,130,140,140,402.5,75,F,,1959,Multi-ply,SBD
1,Trish Martin,M1,USA,71.45,145,,-165,145,102.5,114.5,-117.5,114.5,172.5,187.5,195,195,454.5,75,F,,1968,Multi-ply,SBD
1,Valentīna Abramenko,M2,Latvia,69.1,110,120,125,125,72.5,77.5,-80,77.5,110,120,-130,120,322.5,75,F,,1965,Multi-ply,SBD
1,Hanne Bingle,M3,Great Britain,74.5,-140,-140,140,140,115,122.5,-127.5,122.5,120,130,140,140,402.5,75,F,,1959,Multi-ply,SBD
1,Anna Mccloskey,T3,USA,83,-200,-200,200,200,-107.5,107.5,117.5,117.5,187.5,205,-218.5,205,522.5,90,F,,1993,Multi-ply,SBD
1,Anna Mccloskey,O,USA,83,-200,-200,200,200,-107.5,107.5,117.5,117.5,187.5,205,-218.5,205,522.5,90,F,,1993,Multi-ply,SBD
1,Dorothy Shaw,M2,Great Britain,105.95,270,290,-302.5,290,142.5,147.5,-152.5,147.5,220,230,-240,230,667.5,90+,F,,1963,Multi-ply,SBD
1,Oleg Ivanyukov,O,Israel,55.75,,,,,75,80,-82.5,80,,,,,80,56,M,,1980,Raw,B
1,Dominik Kupiec,T3,Poland,58,,,,,92.5,97.5,-100,97.5,,,,,97.5,60,M,,1992,Raw,B
1,Nikolay Lopin,O,Russia,57.05,,,,,90,100,-105,100,,,,,100,60,M,Николай Лопин,1983,Raw,B
1,Maksims Suščevskihs,T2,Latvia,66.4,,,,,112.5,115,117.5,117.5,,,,,117.5,67.5,M,,1994,Raw,B
1,Lauris Stāls,J,Latvia,63.45,,,,,-125,130,137.5,137.5,,,,,137.5,67.5,M,,1989,Raw,B
2,Ervihs Paeglītis,J,Latvia,65.8,,,,,90,95,-97.5,95,,,,,95,67.5,M,,1989,Raw,B
1,Krisztián Kaiser,O,Hungary,67.25,,,,,120,125,-130,125,,,,,125,67.5,M,,1977,Raw,B
1,Ivars Kertjānis,M3,Latvia,66.6,,,,,102.5,107.5,112.5,112.5,,,,,112.5,67.5,M,,1961,Raw,B
1,Boriss Laisin,M5,Estonia,66,,,,,90,97.5,100,100,,,,,100,67.5,M,,1950,Raw,B
2,Vladimir Sviderskiy,M5,Russia,64,,,,,80,-82.5,-85,80,,,,,80,67.5,M,Владимир Свидерский,1951,Raw,B
1,Ernest Ruzin,M7,Israel,65.35,,,,,80,85,-88.5,85,,,,,85,67.5,M,,1937,Raw,B
2,Yuri Kiselev,M7,Russia,66.2,,,,,60,70,,70,,,,,70,67.5,M,Юрий Киселев,1937,Raw,B
1,Iosif Plagov,M8,USA,66.1,,,,,82.5,87.5,-90,87.5,,,,,87.5,67.5,M,,1935,Raw,B
1,Ilya Khodyrev,T2,Russia,74.9,,,,,120,127.5,-135,127.5,,,,,127.5,75,M,Илья Ходырев,1996,Raw,B
1,Eduards Matvejevs,T3,Latvia,72.15,,,,,130,-140,-140,130,,,,,130,75,M,,1992,Raw,B
2,Aivars Katkovskis,T3,Latvia,72.65,,,,,100,105,110,110,,,,,110,75,M,,1993,Raw,B
3,Kristians Tkacenko,T3,Latvia,68.9,,,,,90,95,100,100,,,,,100,75,M,,1993,Raw,B
4,Gints Rekens,T3,Latvia,73.9,,,,,90,95,-102.5,95,,,,,95,75,M,,1993,Raw,B
1,Andrey Yadrintsev,J,Russia,74.9,,,,,125,132.5,140,140,,,,,140,75,M,Андрей Ядринцев,1988,Raw,B
2,Roberts Stepenko,J,Latvia,72,,,,,110,115,-120,115,,,,,115,75,M,,1990,Raw,B
1,István Juhász,O,Hungary,67.6,,,,,210,218.5,-220,218.5,,,,,218.5,75,M,,1976,Raw,B
2,Roman Eremashvili,O,Belarus,74.5,,,,,195,205,-210,205,,,,,205,75,M,,1981,Raw,B
3,Giorgi Bejashvili,O,Georgia,72.5,,,,,185,-197.5,,185,,,,,185,75,M,,1980,Raw,B
4,Vincent Eldin,O,France,73.8,,,,,130,-140,,130,,,,,130,75,M,,1972,Raw,B
1,Pedro Claro,M2,Portugal,74.75,,,,,117.5,122.5,-127.5,122.5,,,,,122.5,75,M,,1965,Raw,B
1,Alexander Papir,M6,Israel,74.35,,,,,-95,95,-105,95,,,,,95,75,M,,1945,Raw,B
1,Grigori Rubin,M8,Israel,70.8,,,,,72.5,77.5,-80,77.5,,,,,77.5,75,M,,1936,Raw,B
1,Pāvels Krūmins Pauls,T1,Latvia,81.1,,,,,85,95,102.5,102.5,,,,,102.5,82.5,M,,1996,Raw,B
2,Zsolt Mak,T3,Hungary,82.5,,,,,155,160,-167.5,160,,,,,160,82.5,M,,1992,Raw,B
1,Artis Steins,J,Latvia,78.85,,,,,170,175,180,180,,,,,180,82.5,M,,1991,Raw,B
2,Juuso Mela,J,Finland,80.75,,,,,150,160,-167.5,160,,,,,160,82.5,M,,1988,Raw,B
3,Pavel Chernyshenko,J,Russia,79.95,,,,,75,-82.5,85,85,,,,,85,82.5,M,,1991,Raw,B
1,Gatis Biezais,O,Latvia,80.95,,,,,162.5,167.5,-170,167.5,,,,,167.5,82.5,M,,1975,Raw,B
2,Armands Naglazs,O,Latvia,82.15,,,,,142.5,152.5,157.5,157.5,,,,,157.5,82.5,M,,1974,Raw,B
1,Eduards Saveljevs,M1,Latvia,79.55,,,,,140,147.5,152.5,152.5,,,,,152.5,82.5,M,,1971,Raw,B
2,Aigars Skrebeļs,M1,Latvia,81.85,,,,,-140,140,-150,140,,,,,140,82.5,M,,1971,Raw,B
1,Konstantsin Dremiankou,M2,Belarus,82.35,,,,,147.5,157.5,-162.5,157.5,,,,,157.5,82.5,M,,1967,Raw,B
1,Vladimir Reshetnikov,M3,Russia,82.35,,,,,172.5,182.5,190,190,,,,,190,82.5,M,Владимир Решетников,1960,Raw,B
2,Aldis Eglitis,M3,Latvia,80.25,,,,,112.5,117.5,122.5,122.5,,,,,122.5,82.5,M,,1961,Raw,B
1,Edmunds Kenigsvalds,M5,Latvia,80.1,,,,,105,110,-112.5,110,,,,,110,82.5,M,,1948,Raw,B
1,Valery Belkin,M7,Latvia,80.75,,,,,-95,95,-100,95,,,,,95,82.5,M,,1940,Raw,B
1,Paul Radelat,M8,USA,77.5,,,,,62.5,72.5,80,80,,,,,80,82.5,M,,1933,Raw,B
1,Gergő Vakarcs Viktor,T1,Hungary,83.15,,,,,120,-130,,120,,,,,120,90,M,,1995,Raw,B
4,Davis Grietens,T3,Latvia,88.45,,,,,115,125,127.5,127.5,,,,,127.5,90,M,,1993,Raw,B
1,Matīss Vācietis,J,Latvia,89.6,,,,,165,167.5,172.5,172.5,,,,,172.5,90,M,,1989,Raw,B
2,Dmitrijs Vurca,J,Latvia,88.45,,,,,162.5,167.5,-170,167.5,,,,,167.5,90,M,,1988,Raw,B
1,Oleg Bazilevich,O,Ukraine,89.2,,,,,230,237.5,245,245,,,,,245,90,M,Олег Базилевич,1982,Raw,B
2,Florindo Figueiredo Pinheiro,O,Portugal,88.05,,,,,225,235,-245,235,,,,,235,90,M,,1973,Raw,B
3,Allan Jokinen,O,Finland,89,,,,,210,215,-238.5,215,,,,,215,90,M,,1973,Raw,B
4,János Örsi,O,Hungary,89.9,,,,,202.5,-212.5,212.5,212.5,,,,,212.5,90,M,,1977,Raw,B
5,Ŀukasz Marcińkowski,O,Poland,87.9,,,,,190,202.5,,202.5,,,,,202.5,90,M,,1986,Raw,B
6,Gennadiy Khvan,O,Kazakhstan,89.45,,,,,195,-202.5,,195,,,,,195,90,M,,1958,Raw,B
7,Ojārs Vērītis,O,Latvia,87.1,,,,,190,195,-200,195,,,,,195,90,M,,1974,Raw,B
8,Aleksey Blintsov,O,Russia,84.8,,,,,185,192.5,-197.5,192.5,,,,,192.5,90,M,Алексей Блинцов,1980,Raw,B
9,Tamir Yakobi,O,Israel,89.9,,,,,160,175,,175,,,,,175,90,M,,1981,Raw,B
10,Mārtiņš Būčiņš,O,Latvia,88.4,,,,,-165,165,-170,165,,,,,165,90,M,,1974,Raw,B
11,Helvis Gutmanis,O,Latvia,89.25,,,,,-140,150,-155,150,,,,,150,90,M,,1982,Raw,B
1,László Kupcsik,M1,Hungary,89.6,,,,,200,-213.5,,200,,,,,200,90,M,,1967,Raw,B
1,Aleksandrs Miglāns,M2,Latvia,85.45,,,,,150,160,-165,160,,,,,160,90,M,,1963,Raw,B
2,Gennadiy Khvan,M3,Kazakhstan,89.45,,,,,192.5,-205,-207.5,192.5,,,,,192.5,90,M,,1958,Raw,B
1,Evgeniy Basov,M4,Russia,87.2,,,,,120,130,-132.5,130,,,,,130,90,M,Евгений Басов,1955,Raw,B
1,Sergei Druzhkov,M5,Russia,84.3,,,,,55,,,55,,,,,55,90,M,Сергей Дружков,1950,Raw,B
1,Valerijs Petrovs,M6,Latvia,89,,,,,135,-140,,135,,,,,135,90,M,,1946,Raw,B
1,Roland Schubert,M7,Germany,88.3,,,,,140,145,-150,145,,,,,145,90,M,,1940,Raw,B
1,Josef Tullo,T3,Australia,90.1,,,,,140,150,160,160,,,,,160,100,M,,1992,Raw,B
1,Sergey Didovyk,O,Ukraine,99.15,,,,,-210,210,,210,,,,,210,100,M,Сергій Дідовик,1978,Raw,B
2,Viesturs Eidemanis,O,Latvia,91.45,,,,,195,200,-205,200,,,,,200,100,M,,1979,Raw,B
3,Igors Gluskovs,O,Latvia,97.6,,,,,190,-195,-195,190,,,,,190,100,M,,1981,Raw,B
4,Ivan Solntsev,O,Russia,96.6,,,,,185,-195,-195,185,,,,,185,100,M,Иван Солнцев,1974,Raw,B
5,Mikhail Knyazkov,O,Russia,100,,,,,185,-195,-195,185,,,,,185,100,M,Михаил Князьков,1978,Raw,B
6,Raivis Popovs,O,Latvia,95.4,,,,,-160,165,-170,165,,,,,165,100,M,,1976,Raw,B
7,Juris Glanenko,O,Latvia,95.6,,,,,160,-175,-180,160,,,,,160,100,M,,1985,Raw,B
1,Sergejs Mahsumovs,M1,Latvia,96.4,,,,,165,175,-185,175,,,,,175,100,M,,1970,Raw,B
1,Normunds Sproģis,M2,Latvia,96.25,,,,,-180,180,192.5,192.5,,,,,192.5,100,M,,1965,Raw,B
2,Sergey Romanov,M2,Kazakhstan,92.85,,,,,180,190,,190,,,,,190,100,M,,1963,Raw,B
3,Olegs Illarionovs,M2,Latvia,95.45,,,,,180,190,-197.5,190,,,,,190,100,M,,1965,Raw,B
4,Dmitriy Chertushkin,M2,Russia,98.75,,,,,155,162.5,-170,162.5,,,,,162.5,100,M,Дмитрий Чертушкин,1965,Raw,B
5,Vyacheslav Frank,M2,Russia,97.45,,,,,132.5,137.5,140,140,,,,,140,100,M,Вячеслав Франк,1962,Raw,B
6,Stéphane Gurini,M2,France,99.9,,,,,135,140,,140,,,,,140,100,M,,1965,Raw,B
1,Vitaliy Ponomarev,M3,Russia,100,,,,,180,190,200,200,,,,,200,100,M,Виталий Пономарев,1957,Raw,B
3,Stéphane Chavin Gazalier,M3,France,98.3,,,,,-162.5,162.5,165,165,,,,,165,100,M,,1961,Raw,B
4,Valeriy Akentyev,M3,Russia,96.75,,,,,150,160,162.5,162.5,,,,,162.5,100,M,Валерий Акентьев,1958,Raw,B
1,Axel Gersdorf,M5,Germany,97.15,,,,,175,-182.5,-191,175,,,,,175,100,M,,1951,Raw,B
2,Ivars Miziss,M5,Latvia,98.05,,,,,-135,-135,135,135,,,,,135,100,M,,1951,Raw,B
1,František Esser,M6,Czech Republic,98.1,,,,,120,130,-143.5,130,,,,,130,100,M,,1946,Raw,B
1,Valeriy Bystrov,M7,Russia,95.9,,,,,-105,110,-115,110,,,,,110,100,M,Валерий Быстров,1941,Raw,B
1,Reinis Kindzulis,T3,Latvia,106.7,,,,,190,-200,200,200,,,,,200,110,M,,1992,Raw,B
1,Jevgenijs Artemjevs,J,Latvia,105.3,,,,,205,215,220,220,,,,,220,110,M,,1988,Raw,B
2,Aleksey Alekseev,J,Russia,107.9,,,,,200,-207.5,,200,,,,,200,110,M,Алексей Алексеев,1988,Raw,B
3,Josef Peška,J,Czech Republic,106.5,,,,,160,-170,-175,160,,,,,160,110,M,,1990,Raw,B
1,Oleg Saydentsal,O,Russia,108.35,,,,,242.5,-247.5,247.5,247.5,,,,,247.5,110,M,Олег Сайденцаль,1975,Raw,B
2,Georgi Beroshvili,O,Georgia,108.5,,,,,220,240,245,245,,,,,245,110,M,,1984,Raw,B
3,Anton Begalko,O,Ukraine,104.3,,,,,235,-242.5,-242.5,235,,,,,235,110,M,Антон Бегалко,1986,Raw,B
4,Vasiliy Fedyaev,O,Russia,105.65,,,,,230,-235,-237.5,230,,,,,230,110,M,Василий Федяев,1982,Raw,B
5,Petr Bolf,O,Czech Republic,104,,,,,200,215,220,220,,,,,220,110,M,,1987,Raw,B
6,Jānis Todavčič,O,Latvia,104.65,,,,,220,-235,-240,220,,,,,220,110,M,,1985,Raw,B
7,Igors Pirins,O,Latvia,104.3,,,,,195,200,202.5,202.5,,,,,202.5,110,M,,1981,Raw,B
DQ,Martins Apskalns,O,Latvia,108.55,,,,,-235,-235,-242.5,,,,,,,110,M,,1985,Raw,B
1,Uģis Vacietis,M1,Latvia,105.8,,,,,200,212.5,-215,212.5,,,,,212.5,110,M,,1967,Raw,B
2,Eric Platel,M1,France,104.5,,,,,175,182.5,,182.5,,,,,182.5,110,M,,1971,Raw,B
3,Juhani Majuri Timo,M1,Estonia,109.7,,,,,180,-190,-190,180,,,,,180,110,M,,1967,Raw,B
1,Oleg Korotaev,M2,Russia,107.5,,,,,190,200,210,210,,,,,210,110,M,Олег Коротаев,1965,Raw,B
2,Gvido Kohs,M2,Latvia,107.5,,,,,160,175,-185,175,,,,,175,110,M,,1965,Raw,B
1,Pavel Kostyrko,M3,Russia,107.6,,,,,140,150,-152.5,150,,,,,150,110,M,Павел Костырко,1959,Raw,B
2,Vasilijs Drobovs,M3,Latvia,100.6,,,,,137.5,145,-150,145,,,,,145,110,M,,1958,Raw,B
1,Viktor Kurochkin,M4,Ukraine,106.05,,,,,100,120,,120,,,,,120,110,M,Віктор Курочкін,1955,Raw,B
1,Petro Onishchuk,J,Ukraine,117.4,,,,,250,,,250,,,,,250,125,M,Петро Онищук,1988,Raw,B
2,Benjamin Bodnar,J,Hungary,116.6,,,,,-200,200,-210,200,,,,,200,125,M,,1991,Raw,B
3,Igors Kurako,J,Latvia,120.2,,,,,140,150,155,155,,,,,155,125,M,,1988,Raw,B
1,Petro Onishchuk,O,Ukraine,117.4,,,,,260,267.5,-272.5,267.5,,,,,267.5,125,M,Петро Онищук,1988,Raw,B
2,Aleksey Gurkin,O,Russia,118.7,,,,,240,250,,250,,,,,250,125,M,Алексей Гуркин,1973,Raw,B
3,Norbert Stranszki,O,Hungary,116.8,,,,,220,230,235,235,,,,,235,125,M,,1986,Raw,B
4,Stanislav Kolachev,O,Russia,116.55,,,,,220,227.5,-235,227.5,,,,,227.5,125,M,Станислав Колачев,1987,Raw,B
5,Sandris Preimanis,O,Latvia,123.3,,,,,220,-230,-235,220,,,,,220,125,M,,1974,Raw,B
6,Alexey Pisarevskiy,O,Kazakhstan,124.5,,,,,215,-225,-225,215,,,,,215,125,M,,1987,Raw,B
7,Ramig Nuruev,O,Russia,123,,,,,-200,200,-210,200,,,,,200,125,M,Рамиг Нуруев,1984,Raw,B
8,Miklos Mihajlovic,O,Serbia,114.8,,,,,190,-210,-210,190,,,,,190,125,M,,1976,Raw,B
1,Mariks Daugavets,M1,Latvia,121.25,,,,,230,-240,-240,230,,,,,230,125,M,,1971,Raw,B
2,Nikolay Boykov,M1,Russia,124.5,,,,,195,200,205,205,,,,,205,125,M,Николай Бойков,1969,Raw,B
3,Sergey Samoylenko,M1,Russia,111.8,,,,,140,150,-160,150,,,,,150,125,M,Сергей Самойленко,1969,Raw,B
4,Raivo Klimbis,M1,Latvia,110.4,,,,,135,145,-150,145,,,,,145,125,M,,1969,Raw,B
1,Didier Michelon,M2,France,116.1,,,,,160,185,-200,185,,,,,185,125,M,,1963,Raw,B
2,Yuriy Usoltsev,M2,Russia,111.4,,,,,170,180,-190,180,,,,,180,125,M,Юрий Усольцев,1964,Raw,B
3,Vasily Chernyshenko,M2,Russia,117.2,,,,,145,152.5,-155,152.5,,,,,152.5,125,M,Василий Чернышенко,1963,Raw,B
1,Dieter Berghoff,M3,Germany,121.5,,,,,-180,190,-200,190,,,,,190,125,M,,1960,Raw,B
1,Grachik Egozaryan,M4,Russia,110.9,,,,,170,182.5,190,190,,,,,190,125,M,Грачик Егозарьян,1952,Raw,B
1,Josef Hakl,M5,Czech Republic,114.6,,,,,-150,-150,150,150,,,,,150,125,M,,1950,Raw,B
1,Evgeniy Dmitriev,M7,Russia,116,,,,,125,130,135,135,,,,,135,125,M,Евгений Дмитриев,1940,Raw,B
1,Nikita Kuzmin,J,Russia,138.9,,,,,195,210,217.5,217.5,,,,,217.5,140,M,Никита Кузьмин,1988,Raw,B
1,László Mészáros,O,Hungary,129.9,,,,,280,291,300,300,,,,,300,140,M,,1968,Raw,B
2,Viktor Kochmar,O,Ukraine,134.95,,,,,230,235,-240,235,,,,,235,140,M,Віктор Кочмар,1970,Raw,B
3,Wayne Howlett,O,Australia,126.1,,,,,220,225,,225,,,,,225,140,M,,1980,Raw,B
4,Oleg Dolzhenko,O,Ukraine,126.5,,,,,200,210,-220,210,,,,,210,140,M,Олег Долженко,1973,Raw,B
5,Lev Pankov,O,Russia,126.3,,,,,190,-200,200,200,,,,,200,140,M,Лев Панков,1979,Raw,B
1,Viktor Kochmar,M1,Ukraine,134.95,,,,,230,240,-245,240,,,,,240,140,M,Віктор Кочмар,1970,Raw,B
1,Ján Orosz,M2,Slovak Republic,130.5,,,,,205,-215,-221,205,,,,,205,140,M,,1964,Raw,B
1,Andrejs Mūrnieks,O,Latvia,141.35,,,,,255,265,-275,265,,,,,265,140+,M,,1980,Raw,B
2,Adrian Tullo,O,Australia,165.4,,,,,220,240,-250,240,,,,,240,140+,M,,1972,Raw,B
3,Andrzej Swierszcz,O,Poland,140.5,,,,,230,-240,-240,230,,,,,230,140+,M,,1972,Raw,B
4,Sergey Kolesnichenko,O,Russia,140.25,,,,,215,220,-230,220,,,,,220,140+,M,Сергей Колесниченко,1979,Raw,B
1,Elizabet Tomilov,T1,Israel,33.85,,,,,20,22.5,25,25,,,,,25,44,F,,2003,Raw,B
1,Leslie Watson,O,Great Britain,45.3,,,,,-62.5,-62.5,62.5,62.5,,,,,62.5,48,F,,1948,Raw,B
1,Maryana Naumova,T1,Russia,51.2,,,,,67.5,70,72.5,72.5,,,,,72.5,52,F,Марьяна Наумова,1999,Raw,B
1,Maryana Naumova,O,Russia,51.2,,,,,67.5,70,72.5,72.5,,,,,72.5,52,F,Марьяна Наумова,1999,Raw,B
1,Elva Bole,T2,Latvia,54.22,,,,,40,42.5,45,45,,,,,45,56,F,,1995,Raw,B
1,Anna Kadatska,O,Ukraine,55.45,,,,,95,-100,-100,95,,,,,95,56,F,Анна Кадацька,1977,Raw,B
2,Lilia Prots,O,Ukraine,54.05,,,,,55,60,65,65,,,,,65,56,F,Лілія Проць,1974,Raw,B
3,Roza Ovechkina,O,Russia,55.95,,,,,55,60,65,65,,,,,65,56,F,Роза Овечкина,1980,Raw,B
1,Svetlana Klepikova,J,Russia,57.05,,,,,70,77.5,81,81,,,,,81,60,F,Светлана Клепикова,1988,Raw,B
1,Marina Medvedeva,O,Russia,59.1,,,,,75,80,85,85,,,,,85,60,F,Марина Медведева,1974,Raw,B
1,Christel Schubert,M6,Germany,59.25,,,,,35,37.5,-38.5,37.5,,,,,37.5,60,F,,1945,Raw,B
1,Digna Tuca,J,Latvia,67.45,,,,,52.5,55,57.5,57.5,,,,,57.5,67.5,F,,1988,Raw,B
1,Inna Tretjaka,O,Latvia,66.85,,,,,100,105,107.5,107.5,,,,,107.5,67.5,F,,1985,Raw,B
2,Iris Shekhter,O,Israel,65.1,,,,,80,85,-92.5,85,,,,,85,67.5,F,,1978,Raw,B
1,Sandra Bileiše,M2,Latvia,67.4,,,,,85,90,-92.5,90,,,,,90,67.5,F,,1963,Raw,B
1,Katja Rosenthal,J,Germany,73.1,,,,,60,-65,-65,60,,,,,60,75,F,,1991,Raw,B
1,Iryna Zheliazkova,O,Ukraine,69.9,,,,,45,50,52.5,52.5,,,,,52.5,75,F,,1984,Raw,B
1,Elena Sheverdina,M1,Russia,74.6,,,,,125,132.5,137.5,137.5,,,,,137.5,75,F,Елена Шевердина,1968,Raw,B
1,Svetlana Odintsova,M2,Russia,73.6,,,,,100,-107.5,107.5,107.5,,,,,107.5,75,F,Светлана Одинцова,1966,Raw,B
1,Jolanta Logina,O,Latvia,87.7,,,,,90,-95,100,100,,,,,100,90,F,,1978,Raw,B
1,Karina Grigorjeva,O,Latvia,90.55,,,,,77.5,82.5,85,85,,,,,85,90+,F,,1981,Raw,B
DQ,Anna Mccloskey,T3,USA,82.9,,,,,-130,-137.5,-137.5,,,,,,,90,F,,1993,Multi-ply,B
1,Michal Tamaskovic,J,Slovak Republic,52,,,,,100,105,110,110,,,,,110,52,M,,1988,Multi-ply,B
1,Oleg Ivanyukov,O,Israel,57.1,,,,,95,105,-117.5,105,,,,,105,60,M,,1980,Multi-ply,B
DQ,Chris Svoboda,J,USA,67.5,,,,,-212.5,-212.5,-212.5,,,,,,,67.5,M,,1988,Multi-ply,B
1,Anatoliy Nefedov,O,Russia,66.6,,,,,160,170,,170,,,,,170,67.5,M,Анатолий Нефедов,1963,Multi-ply,B
1,Anatoliy Nefedov,M2,Russia,66.6,,,,,160,170,175,175,,,,,175,67.5,M,Анатолий Нефедов,1963,Multi-ply,B
1,Ernest Ruzin,M7,Israel,64.9,,,,,75,80,-85,80,,,,,80,67.5,M,,1937,Multi-ply,B
2,Yuri Kiselev,M7,Russia,66.2,,,,,60,70,,70,,,,,70,67.5,M,Юрий Киселев,1937,Multi-ply,B
1,Dániel Égei,T3,Hungary,73,,,,,160,170,180,180,,,,,180,75,M,,1992,Multi-ply,B
2,Eduards Matvejevs,T3,Latvia,72.4,,,,,150,-155,-155,150,,,,,150,75,M,,1992,Multi-ply,B
3,Rafał Żarnowski,T3,Poland,73.3,,,,,140,145,-152.5,145,,,,,145,75,M,,1992,Multi-ply,B
1,Alexei Alexeev Goruho,J,Israel,72.6,,,,,160,170,-180,170,,,,,170,75,M,,1989,Multi-ply,B
2,Davyd Pkin,J,Ukraine,75,,,,,140,-160,-172.5,140,,,,,140,75,M,Давид Пкін,1990,Multi-ply,B
1,Vincent Eldin,O,France,73.8,,,,,170,-180,-180,170,,,,,170,75,M,,1972,Multi-ply,B
2,Jonas Anderbring,O,Sweden,74,,,,,155,-160,-170,155,,,,,155,75,M,,1979,Multi-ply,B
1,Pedro Claro,M2,Portugal,74.7,,,,,135,145,150,150,,,,,150,75,M,,1965,Multi-ply,B
1,Michel Faugue,M3,France,72.3,,,,,135,-145,145,145,,,,,145,75,M,,1959,Multi-ply,B
1,Alexander Papir,M6,Israel,74.3,,,,,100,107.5,112.5,112.5,,,,,112.5,75,M,,1945,Multi-ply,B
1,Grigori Rubin,M8,Israel,71.5,,,,,82.5,-90,95,95,,,,,95,75,M,,1936,Multi-ply,B
1,Gergő Vakarcs Viktor,T1,Hungary,81.45,,,,,140,150,-160,150,,,,,150,82.5,M,,1995,Multi-ply,B
1,Zsolt Mak,T3,Hungary,81.7,,,,,180,-185,185,185,,,,,185,82.5,M,,1992,Multi-ply,B
2,Miroslav Čaba,T3,Slovak Republic,80,,,,,175,-182.5,-182.5,175,,,,,175,82.5,M,,1993,Multi-ply,B
1,Károly Szabó,J,Hungary,77,,,,,180,-190,190,190,,,,,190,82.5,M,,1991,Multi-ply,B
1,Ŀukasz Kozłowski,O,Poland,82.3,,,,,220,225,-230,225,,,,,225,82.5,M,,1985,Multi-ply,B
2,Gatis Biezais,O,Latvia,81.2,,,,,180,190,-195,190,,,,,190,82.5,M,,1975,Multi-ply,B
3,Didier Theux,O,France,81.85,,,,,185,-195,-195,185,,,,,185,82.5,M,,1958,Multi-ply,B
DQ,Andris Greberis,M2,Latvia,82.4,,,,,-217.5,,,,,,,,,82.5,M,,1964,Multi-ply,B
1,Didier Theux,M3,France,81.85,,,,,185,-192.5,192.5,192.5,,,,,192.5,82.5,M,,1958,Multi-ply,B
1,Dávid Mészáros,T3,Hungary,88.8,,,,,225,-235,235,235,,,,,235,90,M,,1993,Multi-ply,B
2,Christopher Glover,T3,Great Britain,88.3,,,,,150,-217.5,-235,150,,,,,150,90,M,,1992,Multi-ply,B
1,Ákos Oláh,J,Hungary,88.1,,,,,245,252.5,-262.5,252.5,,,,,252.5,90,M,,1989,Multi-ply,B
DQ,Aigars Jaņēvičs,J,Latvia,89.8,,,,,-245,-245,-245,,,,,,,90,M,,1991,Multi-ply,B
1,Yuji Watanabe,O,Japan,88.85,,,,,-290,-290,295,295,,,,,295,90,M,,1980,Multi-ply,B
2,Igor Sergeev,O,Russia,89.1,,,,,280,290,-305,290,,,,,290,90,M,Игорь Сергеев,1966,Multi-ply,B
3,Heikki Sorsa,O,Finland,90,,,,,-262.5,-262.5,262.5,262.5,,,,,262.5,90,M,,1983,Multi-ply,B
4,Mikhail Nagovitsyn,O,Russia,85.55,,,,,240,250,255,255,,,,,255,90,M,Михаил Наговицын,1980,Multi-ply,B
5,Krzysztof Zakrzewski,O,Poland,89.3,,,,,240,-250,252.5,252.5,,,,,252.5,90,M,,1977,Multi-ply,B
6,Ŀukasz Marcińkowski,O,Poland,89.4,,,,,-240,240,-252,240,,,,,240,90,M,,1986,Multi-ply,B
7,Volodymyr Starchenko,O,Ukraine,87.6,,,,,225,-230,-235,225,,,,,225,90,M,Володимир Старченко,1975,Multi-ply,B
8,David Velička,O,Czech Republic,89.7,,,,,-225,-225,225,225,,,,,225,90,M,,1978,Multi-ply,B
9,Helvis Gutmanis,O,Latvia,88.4,,,,,160,170,-180,170,,,,,170,90,M,,1982,Multi-ply,B
DQ,Mariusz Kominek,O,Poland,89.1,,,,,-240,-240,-240,,,,,,,90,M,,1985,Multi-ply,B
DQ,Jarkko Hamalainen,O,Finland,89.35,,,,,-240,,,,,,,,,90,M,,1984,Multi-ply,B
DQ,Sergiy Naleykin,O,Ukraine,87,,,,,-305,-305,-305,,,,,,,90,M,Сергій Налейкін,1981,Multi-ply,B
DQ,Dawid Deptuch,O,Poland,89.1,,,,,-220,-225,-227.5,,,,,,,90,M,,1986,Multi-ply,B
DQ,Mikhail Veber,O,Russia,88.65,,,,,-255,-255,-255,,,,,,,90,M,Михаил Вебер,1971,Multi-ply,B
1,Jens Bollwahn,M1,Germany,88.15,,,,,190,210,-215,210,,,,,210,90,M,,1970,Multi-ply,B
1,Yuriy Petryakov,M2,Russia,88.9,,,,,220,230,-235,230,,,,,230,90,M,Юрий Петряков,1964,Multi-ply,B
2,Valery Tomilov,M2,Israel,88.7,,,,,217.5,-220,,217.5,,,,,217.5,90,M,,1965,Multi-ply,B
1,Alexander Petrov,M3,Russia,88.9,,,,,235,250,-260,250,,,,,250,90,M,Александр Петров,1960,Multi-ply,B
1,József Sztanke,M4,Hungary,88.7,,,,,195,-202.5,-207.5,195,,,,,195,90,M,,1954,Multi-ply,B
2,Klaus Krüger,M4,Germany,88.05,,,,,190,,-205,190,,,,,190,90,M,,1952,Multi-ply,B
3,Krzysztof Kołodziej,M4,Poland,89.5,,,,,-160,160,-170,160,,,,,160,90,M,,1954,Multi-ply,B
DQ,Alain-Francis Mattei,M4,France,89.8,,,,,-180,,,,,,,,,90,M,,1955,Multi-ply,B
1,Valērijs Ņegajevs,M5,Latvia,85.1,,,,,130,140,-145,140,,,,,140,90,M,,1949,Multi-ply,B
1,Evgeniy Khudoleev,M6,Russia,87.1,,,,,-170,170,-175,170,,,,,170,90,M,Евгений Худолеев,1946,Multi-ply,B
1,Richárd Budai,T3,Hungary,91.95,,,,,-210,210,-245,210,,,,,210,100,M,,1993,Multi-ply,B
1,Máté Szilágyi,J,Hungary,95.2,,,,,270,-280,280,280,,,,,280,100,M,,1991,Multi-ply,B
2,Oleksandr Dorgobuzov,J,Ukraine,95.9,,,,,265,-272.5,-272.5,265,,,,,265,100,M,Олександр Доргобузов,1988,Multi-ply,B
3,Ricardo Alves Ruela Bruno,J,Portugal,98.25,,,,,215,-227.5,-227.5,215,,,,,215,100,M,,1988,Multi-ply,B
1,Oleksandr Kucher,O,Ukraine,98.6,,,,,280,-290,-292.5,280,,,,,280,100,M,Олександр Кучер,1985,Multi-ply,B
2,Tamir Yakobi,O,Israel,91.45,,,,,200,210,220,220,,,,,220,100,M,,1981,Multi-ply,B
3,Darius Janutis,O,Latvia,99.7,,,,,180,-200,-200,180,,,,,180,100,M,,1986,Multi-ply,B
DQ,Bruno Szambelanczyk,O,France,98.8,,,,,-225,-225,,,,,,,,100,M,,1980,Multi-ply,B
DQ,Janis Freimanis,O,Latvia,97.5,,,,,-170,-170,-170,,,,,,,100,M,,1982,Multi-ply,B
DQ,Sergey Didovyk,O,Ukraine,99.4,,,,,-290,-290,-292.5,,,,,,,100,M,Сергій Дідовик,1978,Multi-ply,B
DQ,Henry Lehtola,O,Finland,99.55,,,,,-312.5,-312.5,-312.5,,,,,,,100,M,,1981,Multi-ply,B
DQ,Niclas Friberg,O,Sweden,98.6,,,,,-210,-210,-210,,,,,,,100,M,,1974,Multi-ply,B
DQ,Sahib Ahmadov Mustafa,O,Azerbaijan,95.65,,,,,-290,-290,-290,,,,,,,100,M,,1980,Multi-ply,B
DQ,Juliusz Zbierski,O,Poland,96.8,,,,,-220,-220,,,,,,,,100,M,,1974,Multi-ply,B
DQ,Alexandar Kyurchev Nikolov,O,Bulgaria,97.3,,,,,-270,,,,,,,,,100,M,,1979,Multi-ply,B
1,Andrus Moroz,M1,Estonia,96.65,,,,,170,200,220,220,,,,,220,100,M,,1971,Multi-ply,B
1,Sergey Belikov,M2,Russia,99.3,,,,,-270,-270,270,270,,,,,270,100,M,Сергей Беликов,1964,Multi-ply,B
2,Dmitriy Chertushkin,M2,Russia,98.7,,,,,-190,-195,195,195,,,,,195,100,M,Дмитрий Чертушкин,1965,Multi-ply,B
DQ,Stéphane Gurini,M2,France,99.9,,,,,-180,-180,-180,,,,,,,100,M,,1965,Multi-ply,B
1,Vitaliy Ponomarev,M3,Russia,99.05,,,,,237.5,245,247.5,247.5,,,,,247.5,100,M,Виталий Пономарев,1957,Multi-ply,B
2,Stéphane Chavin Gazalier,M3,France,98.3,,,,,237.5,245,-252.5,245,,,,,245,100,M,,1961,Multi-ply,B
3,Valeriy Akentyev,M3,Russia,98.5,,,,,220,225,-240,225,,,,,225,100,M,Валерий Акентьев,1958,Multi-ply,B
1,Hans-Ulrich Vetter,M4,Germany,99.1,,,,,180,190,-200,190,,,,,190,100,M,,1952,Multi-ply,B
2,Evgeniy Basov,M4,Russia,90.4,,,,,145,155,165,165,,,,,165,100,M,Евгений Басов,1955,Multi-ply,B
1,Axel Gersdorf,M5,Germany,96.8,,,,,200,-205,-205,200,,,,,200,100,M,,1951,Multi-ply,B
2,Hans-Jurgen Borkowski,M5,Germany,93.35,,,,,,,180,180,,,,,180,100,M,,1950,Multi-ply,B
1,Valerijs Petrovs,M6,Latvia,90.2,,,,,155,162.5,170,170,,,,,170,100,M,,1946,Multi-ply,B
2,Pekka Korhonen,M6,Finland,98.3,,,,,-150,150,-165,150,,,,,150,100,M,,1944,Multi-ply,B
DQ,František Esser,M6,Czech Republic,98.1,,,,,-150,-155,,,,,,,,100,M,,1946,Multi-ply,B
1,Jevgenijs Artemjevs,J,Latvia,104.9,,,,,280,-290,290,290,,,,,290,110,M,,1988,Multi-ply,B
2,Gábor Katona,J,Hungary,102.6,,,,,270,-277.5,280,280,,,,,280,110,M,,1991,Multi-ply,B
3,Kai-Oskari Lehtinen,J,Finland,105.9,,,,,265,277.5,-282.5,277.5,,,,,277.5,110,M,,1989,Multi-ply,B
4,Iļja Hacko,J,Latvia,106.7,,,,,247.5,-252.5,-252.5,247.5,,,,,247.5,110,M,,1988,Multi-ply,B
5,Olar Teras,J,Estonia,102.2,,,,,195,205,-215,205,,,,,205,110,M,,1990,Multi-ply,B
1,Denis Knyazev,O,Russia,108.6,,,,,-325,-335,335,335,,,,,335,110,M,Денис Князев,1987,Multi-ply,B
2,Aleksandr Tretyakov,O,Russia,109.6,,,,,325,-335,-337.5,325,,,,,325,110,M,Александр Третьяков,1967,Multi-ply,B
3,Ivars Ozols,O,Latvia,110,,,,,305,315,-327.5,315,,,,,315,110,M,,1978,Multi-ply,B
4,Anton Begalko,O,Ukraine,104.3,,,,,310,-320,-327.5,310,,,,,310,110,M,Антон Бегалко,1986,Multi-ply,B
5,Eemeli Ylitalo-James Kalle,O,Finland,108.9,,,,,280,-307.5,-312.5,280,,,,,280,110,M,,1983,Multi-ply,B
6,Petr Bolf,O,Czech Republic,104,,,,,265,-275,-280,265,,,,,265,110,M,,1987,Multi-ply,B
7,Marek Hlaváč,O,Czech Republic,108,,,,,-235,-235,240,240,,,,,240,110,M,,1976,Multi-ply,B
DQ,Viktor Fursov,O,Russia,107.4,,,,,-265,-265,-265,,,,,,,110,M,Виктор Фурсов,1974,Multi-ply,B
DQ,Dmitry Gorbachev,O,Russia,109.1,,,,,-300,-305,-305,,,,,,,110,M,Дмитрий Горбачев,1970,Multi-ply,B
DQ,Ibrahim Ibrahimov,O,Azerbaijan,110,,,,,-310,-310,-327.5,,,,,,,110,M,,1981,Multi-ply,B
DQ,Andis Kaspars,O,Latvia,108.4,,,,,-235,,,,,,,,,110,M,,1976,Multi-ply,B
1,Eric Platel,M1,France,104.5,,,,,245,252.5,-260,252.5,,,,,252.5,110,M,,1971,Multi-ply,B
DQ,Dmitry Gorbachev,M1,Russia,109.1,,,,,-320,-320,-320,,,,,,,110,M,Дмитрий Горбачев,1970,Multi-ply,B
1,Marko Lempinen,M2,Finland,105.6,,,,,210,220,227.5,227.5,,,,,227.5,110,M,,1966,Multi-ply,B
2,Bock Libor,M2,Czech Republic,101.7,,,,,-210,-220,225,225,,,,,225,110,M,,1964,Multi-ply,B
3,Lauris Pavulans,M2,Latvia,104.15,,,,,90,,,90,,,,,90,110,M,,1963,Multi-ply,B
1,Tamás Brauner,M3,Hungary,105.8,,,,,220,230,240,240,,,,,240,110,M,,1960,Multi-ply,B
2,Jari Uotila,M3,Finland,110,,,,,-180,-180,180,180,,,,,180,110,M,,,Multi-ply,B
DQ,Joseph Smolinski,M4,USA,108.3,,,,,-280,-280,-280,,,,,,,110,M,,1955,Multi-ply,B
1,Sergey Poltavtsev,M5,Russia,101.6,,,,,190,200,-210,200,,,,,200,110,M,Сергей Полтавцев,1950,Multi-ply,B
1,Laszlo Tamas,J,Hungary,114.1,,,,,-220,-220,220,220,,,,,220,125,M,,1991,Multi-ply,B
DQ,Thibaut Lely,J,France,113.1,,,,,-210,-210,-210,,,,,,,125,M,,1989,Multi-ply,B
DQ,Matias Neuvonen,J,Finland,118.5,,,,,-200,-200,-200,,,,,,,125,M,,1989,Multi-ply,B
1,Viktor Naydenov,O,Russia,120.1,,,,,375,391,400,400,,,,,400,125,M,Виктор Найденов,1987,Multi-ply,B
2,Zoltán Csepregi,O,Hungary,114.2,,,,,350,365,-392.5,365,,,,,365,125,M,,1975,Multi-ply,B
3,Aleksey Gurkin,O,Russia,118.55,,,,,327.5,337.5,-345,337.5,,,,,337.5,125,M,Алексей Гуркин,1973,Multi-ply,B
4,Daniel Dvořák,O,Czech Republic,123.4,,,,,285,300,-312.5,300,,,,,300,125,M,,1976,Multi-ply,B
5,Csaba Kovács,O,Hungary,114.25,,,,,262.5,270,-300,270,,,,,270,125,M,,1980,Multi-ply,B
6,Andis Skensbergs,O,Latvia,114.7,,,,,-240,250,-260,250,,,,,250,125,M,,1980,Multi-ply,B
7,Elans Kloppe,O,Latvia,119.5,,,,,240,-250,-252.5,240,,,,,240,125,M,,1976,Multi-ply,B
DQ,Vladimir Omelkov,O,Russia,110.6,,,,,-220,-220,-220,,,,,,,125,M,Владимир Омельков,1970,Multi-ply,B
DQ,Miika Ruuskanen,O,Finland,122.8,,,,,-270,-285,-285,,,,,,,125,M,,1986,Multi-ply,B
DQ,Petteri Hosio Henrik,O,Finland,117.8,,,,,-325,-335,-340,,,,,,,125,M,,1979,Multi-ply,B
DQ,Alexey Zaydlin,O,Israel,118.9,,,,,-300,-300,,,,,,,,125,M,,1986,Multi-ply,B
DQ,Viktor Klimov,O,Russia,114.7,,,,,-295,-295,-295,,,,,,,125,M,Виктор Климов,1975,Multi-ply,B
1,Ferenc Balázs,M1,Hungary,114.6,,,,,-290,290,-300,290,,,,,290,125,M,,1970,Multi-ply,B
1,Juhani Majuri Timo,M1,Estonia,110.6,,,,,240,250,255,255,,,,,255,125,M,,1967,Multi-ply,B
DQ,Vladimir Omelkov,M1,Russia,110.6,,,,,-240,-240,-240,,,,,,,125,M,Владимир Омельков,1970,Multi-ply,B
1,Ilmars Madzulis,M2,Latvia,113.85,,,,,170,-180,,170,,,,,170,125,M,,1966,Multi-ply,B
DQ,Didier Michelon,M2,France,116.1,,,,,-315,-315,,,,,,,,125,M,,1963,Multi-ply,B
1,Dainis Polis,M3,Latvia,114.25,,,,,170,200,,200,,,,,200,125,M,,1959,Multi-ply,B
1,Grachik Egozaryan,M4,Russia,110.5,,,,,230,-240,-240,230,,,,,230,125,M,Грачик Егозарьян,1952,Multi-ply,B
2,László Kolozsvári,M4,Hungary,112.8,,,,,180,-190,-190,180,,,,,180,125,M,,1956,Multi-ply,B
1,Alexander Maksimushkin,M5,Russia,110.1,,,,,-220,220,-230,220,,,,,220,125,M,Александр Максимушкин,1950,Multi-ply,B
2,Josef Hakl,M5,Czech Republic,114.5,,,,,-180,180,-200,180,,,,,180,125,M,,1950,Multi-ply,B
1,Ilkka Lukkarinen,J,Finland,137.9,,,,,355,,,355,,,,,355,140,M,,1988,Multi-ply,B
1,Ilkka Lukkarinen,O,Finland,137.9,,,,,365,-395,-400,365,,,,,365,140,M,,1988,Multi-ply,B
2,Jarno Rajala,O,Finland,130.95,,,,,320,325,330,330,,,,,330,140,M,,1973,Multi-ply,B
3,Dmitriy Permyakov,O,Russia,129,,,,,300,-310,325,325,,,,,325,140,M,Дмитрий Пермяков,1975,Multi-ply,B
4,Lev Pankov,O,Russia,126.8,,,,,250,-260,262.5,262.5,,,,,262.5,140,M,Лев Панков,1979,Multi-ply,B
DQ,Richard Ligier,O,France,138.1,,,,,-420,-420,,,,,,,,140,M,,1974,Multi-ply,B
DQ,Ramig Nuruev,O,Russia,125.4,,,,,-260,-265,,,,,,,,140,M,Рамиг Нуруев,1984,Multi-ply,B
1,Edmunds Andrups,M1,Latvia,134.3,,,,,270,285,-300,285,,,,,285,140,M,,1970,Multi-ply,B
1,Sergey Piniachev,M2,Israel,127,,,,,240,-250,-270,240,,,,,240,140,M,,1963,Multi-ply,B
1,Virginijus Kairevicius,M3,Latvia,125.7,,,,,160,-210,210,210,,,,,210,140,M,,1960,Multi-ply,B
2,Andrejs Ivanovs,M3,Latvia,127.3,,,,,170,175,,175,,,,,175,140,M,,1961,Multi-ply,B
1,Tapio Laine,M4,Finland,126.1,,,,,235,245,-252.5,245,,,,,245,140,M,,1952,Multi-ply,B
DQ,Petras Rakauskas,M4,Latvia,128.2,,,,,-125,,,,,,,,,140,M,,1956,Multi-ply,B
1,Marko Traks,J,Estonia,157.8,,,,,280,-310,-310,280,,,,,280,140+,M,,1989,Multi-ply,B
1,Oleksandr Gonchar,O,Ukraine,141.2,,,,,340,350,-360,350,,,,,350,140+,M,Олександр Гончар,1978,Multi-ply,B
2,Andrzej Swierszcz,O,Poland,140.1,,,,,270,280,-300,280,,,,,280,140+,M,,1972,Multi-ply,B
3,Péter Mihály,O,Slovak Republic,154.8,,,,,230,-260,-272.5,230,,,,,230,140+,M,,1958,Multi-ply,B
DQ,Andrejs Mūrnieks,O,Latvia,141.3,,,,,-325,-330,-335,,,,,,,140+,M,,1980,Multi-ply,B
DQ,Markku Kalliola Kari,O,Finland,168.1,,,,,-375,-385,-400,,,,,,,140+,M,,1963,Multi-ply,B
1,Péter Mihály,M3,Slovak Republic,154.8,,,,,225,250,,250,,,,,250,140+,M,,1958,Multi-ply,B
DQ,Ariela Amitay,O,Israel,51.5,,,,,-95,-95,-95,,,,,,,52,F,,1964,Multi-ply,B
DQ,Ariela Amitay,M2,Israel,51.5,,,,,-95,-95,-95,,,,,,,52,F,,1964,Multi-ply,B
1,Alina Kazazayeva,J,Kazakhstan,59.4,,,,,80,90,-102.5,90,,,,,90,60,F,,1991,Multi-ply,B
1,Marina Medvedeva,O,Russia,59.95,,,,,100,110,117.5,117.5,,,,,117.5,60,F,Марина Медведева,1974,Multi-ply,B
1,Anne Heikkilä,O,Finland,67.1,,,,,155,165,-175,165,,,,,165,67.5,F,,1978,Multi-ply,B
2,Iris Shekhter,O,Israel,64.75,,,,,120,135,146,146,,,,,146,67.5,F,,1978,Multi-ply,B
3,Chantal Rostagnat,O,France,65.9,,,,,-80,80,-90,80,,,,,80,67.5,F,,1967,Multi-ply,B
DQ,Darilynn Doddy,J,USA,74.35,,,,,-185,-185,-227.5,,,,,,,75,F,,1990,Multi-ply,B
DQ,Yulia Medvedeva,O,Russia,74.6,,,,,-185,-185,-185,,,,,,,75,F,Юлия Медведева,1979,Multi-ply,B
1,Sandra Bileiše,M2,Latvia,68.25,,,,,100,-105,-105,100,,,,,100,75,F,,1963,Multi-ply,B
DQ,Emma Ylitalo-James,M1,Great Britain,80.5,,,,,-172.5,-177.5,-177.5,,,,,,,82.5,F,,1969,Multi-ply,B
DQ,Anna Mccloskey,T3,USA,82.9,,,,,-130,-137.5,-137.5,,,,,,,90,F,,1993,Multi-ply,B
1,Viktoriya Sheludko,O,Russia,86.9,,,,,200,212.5,-218.5,212.5,,,,,212.5,90,F,Виктория Шелудько,1973,Multi-ply,B
DQ,Anna Mccloskey,O,USA,82.9,,,,,-130,-137.5,-137.5,,,,,,,90,F,,1993,Multi-ply,B
